[
  {
    "normalForm": "jyjo",
    "id": 1132,
    "translations": [ "to adjudicate" ]
  },
  {
    "normalForm": "jocian",
    "id": 1140,
    "translations": [ "to joke" ]
  },
  {
    "normalForm": "jochio",
    "id": 2302,
    "translations": [ "to squirt" ]
  },
  {
    "normalForm": "jacio",
    "id": 2981,
    "translations": [ "to jack" ]
  },
  {
    "normalForm": "jibio",
    "id": 3381,
    "translations": [ "to jib" ]
  },
  {
    "normalForm": "jocan",
    "stem": "joci",
    "id": 3516,
    "translations": [ "to joke" ]
  },
  {
    "normalForm": "jocio",
    "id": 3627,
    "translations": [ "to joke" ]
  },
  {
    "normalForm": "joinio",
    "id": 4302,
    "translations": [ "to join" ]
  },
  {
    "normalForm": "joio",
    "id": 4318,
    "translations": [ "to enjoy" ]
  },
  {
    "normalForm": "jamio",
    "id": 4636,
    "translations": [ "to jam" ]
  }
]