[
  {
    "normalForm": "paentio",
    "id": 591
  },
  {
    "normalForm": "paffio",
    "id": 592
  },
  {
    "normalForm": "palu",
    "id": 593
  },
  {
    "normalForm": "paratoi",
    "id": 594
  },
  {
    "normalForm": "parcio",
    "id": 595
  },
  {
    "normalForm": "parhau",
    "id": 596,
    "stem": "parheu"
  },
  {
    "normalForm": "pasio",
    "id": 597
  },
  {
    "normalForm": "pechu",
    "id": 598
  },
  {
    "normalForm": "pedoli",
    "id": 599
  },
  {
    "normalForm": "pedrannu",
    "id": 600
  },
  {
    "normalForm": "peidio",
    "id": 601
  },
  {
    "normalForm": "peintio",
    "id": 602
  },
  {
    "normalForm": "penderfynu",
    "id": 603
  },
  {
    "normalForm": "pentyrru",
    "id": 604
  },
  {
    "normalForm": "perfformio",
    "id": 605
  },
  {
    "normalForm": "peri",
    "id": 606
  },
  {
    "normalForm": "perswadio",
    "id": 607
  },
  {
    "normalForm": "perthyn",
    "id": 608
  },
  {
    "normalForm": "pesychu",
    "id": 609
  },
  {
    "normalForm": "piau",
    "id": 610
  },
  {
    "normalForm": "piclo",
    "id": 611
  },
  {
    "normalForm": "pigan",
    "id": 612
  },
  {
    "normalForm": "piso",
    "id": 613
  },
  {
    "normalForm": "plannu",
    "id": 614
  },
  {
    "normalForm": "pledio",
    "id": 615
  },
  {
    "normalForm": "pleidleisio",
    "id": 616
  },
  {
    "normalForm": "plethu",
    "id": 617
  },
  {
    "normalForm": "plygio",
    "id": 618
  },
  {
    "normalForm": "plygu",
    "id": 619,
    "etymology": "From Latin plicō (“I bend, I fold”)"
  },
  {
    "normalForm": "poeni",
    "id": 620
  },
  {
    "normalForm": "pori",
    "id": 621
  },
  {
    "normalForm": "potsio",
    "id": 622
  },
  {
    "normalForm": "printio",
    "id": 623
  },
  {
    "normalForm": "priodi",
    "id": 624
  },
  {
    "normalForm": "profi",
    "id": 625
  },
  {
    "normalForm": "prynu",
    "id": 626
  },
  {
    "normalForm": "pweru",
    "id": 627
  },
  {
    "normalForm": "pwyso",
    "id": 628
  },
  {
    "normalForm": "pydru",
    "id": 629
  },
  {
    "normalForm": "pysgota",
    "id": 630
  },
  {
    "normalForm": "pico",
    "id": 793,
    "translations": [ "to pick" ]
  },
  {
    "normalForm": "pibo",
    "id": 804,
    "translations": [ "to have diarrhoea" ]
  },
  {
    "normalForm": "preifateiddio",
    "id": 809,
    "translations": [ "to privatise" ]
  },
  {
    "normalForm": "prancio",
    "id": 839,
    "translations": [ "to prance" ]
  },
  {
    "normalForm": "plotio",
    "id": 842,
    "translations": [ "to plot" ]
  },
  {
    "normalForm": "pigo",
    "id": 851,
    "translations": [ "to pick" ]
  },
  {
    "normalForm": "profocio",
    "id": 855,
    "translations": [ "to tease" ]
  },
  {
    "normalForm": "poeri",
    "id": 859,
    "translations": [ "to spit" ]
  },
  {
    "normalForm": "pilo",
    "id": 914,
    "translations": [ "to peel" ]
  },
  {
    "normalForm": "pereiddio",
    "id": 941,
    "translations": [ "to sweeten" ]
  },
  {
    "normalForm": "pererinio",
    "id": 979,
    "translations": [ "to go on a pilgrimage" ]
  },
  {
    "normalForm": "pipo",
    "id": 980,
    "translations": [ "to peep" ]
  },
  {
    "normalForm": "prifio",
    "id": 985,
    "translations": [ "to flourish" ]
  },
  {
    "normalForm": "palmantu",
    "stem": "palment",
    "id": 989,
    "translations": [ "to pave" ]
  },
  {
    "normalForm": "pilcota",
    "id": 1031,
    "translations": [ "to catch minnows" ]
  },
  {
    "normalForm": "pluennu",
    "id": 1045,
    "translations": [ "to feather" ]
  },
  {
    "normalForm": "paco",
    "id": 1056,
    "translations": [ "to pack" ]
  },
  {
    "normalForm": "puteinio",
    "id": 1058,
    "translations": [ "to whore" ]
  },
  {
    "normalForm": "parasiwtio",
    "id": 1061,
    "translations": [ "to parachute" ]
  },
  {
    "normalForm": "pinsio",
    "id": 1063,
    "translations": [ "to pinch" ]
  },
  {
    "normalForm": "picio",
    "id": 1076,
    "translations": [ "to dart" ]
  },
  {
    "normalForm": "pensynnu",
    "id": 1089,
    "translations": [ "to muse" ]
  },
  {
    "normalForm": "paldaruo",
    "id": 1090,
    "translations": [ "to blather" ]
  },
  {
    "normalForm": "perswado",
    "id": 1099,
    "translations": [ "to persuade" ]
  },
  {
    "normalForm": "padio",
    "id": 1103,
    "translations": [ "to pad" ]
  },
  {
    "normalForm": "pibyddio",
    "id": 1105,
    "translations": [ "to play pipes" ]
  },
  {
    "normalForm": "plisgo",
    "id": 1118,
    "translations": [ "to shell" ]
  },
  {
    "normalForm": "padlo",
    "id": 1145,
    "translations": [ "to paddle" ]
  },
  {
    "normalForm": "perthnasu",
    "id": 1150,
    "translations": [ "to relate" ]
  },
  {
    "normalForm": "pelydru",
    "id": 1157,
    "translations": [ "to radiate" ]
  },
  {
    "normalForm": "powndio",
    "id": 1180,
    "translations": [ "to pound" ]
  },
  {
    "normalForm": "pabellu",
    "id": 1185,
    "translations": [ "to camp" ]
  },
  {
    "normalForm": "pencawna",
    "id": 1206,
    "translations": [ "to idle" ]
  },
  {
    "normalForm": "pabwyra",
    "id": 1207,
    "translations": [ "to gather rushes" ]
  },
  {
    "normalForm": "pardduo",
    "id": 1213,
    "translations": [ "to blacken" ]
  },
  {
    "normalForm": "pilio",
    "id": 1225,
    "translations": [ "to peel" ]
  },
  {
    "normalForm": "paru",
    "id": 1236,
    "translations": [ "to pair" ]
  },
  {
    "normalForm": "pasa",
    "id": 1241,
    "translations": [ "to intend" ]
  },
  {
    "normalForm": "polygoneiddio",
    "id": 1260,
    "translations": [ "to polygonise" ]
  },
  {
    "normalForm": "pyrio",
    "id": 1275,
    "translations": [ "to purr" ]
  },
  {
    "normalForm": "prepian",
    "id": 1276,
    "translations": [ "to prattle" ]
  },
  {
    "normalForm": "pedlera",
    "id": 1289,
    "translations": [ "to peddle" ]
  },
  {
    "normalForm": "paso",
    "id": 1294,
    "translations": [ "to pass" ]
  },
  {
    "normalForm": "pitsio",
    "id": 1301,
    "translations": [ "to pitch" ]
  },
  {
    "normalForm": "personoli",
    "id": 1323,
    "translations": [ "to personify" ]
  },
  {
    "normalForm": "prwfio",
    "id": 1354,
    "translations": [ "to prove" ]
  },
  {
    "normalForm": "parchu",
    "stem": "perch",
    "id": 1376,
    "translations": [ "to respect" ]
  },
  {
    "normalForm": "parthu",
    "id": 1394,
    "translations": [ "to separate" ]
  },
  {
    "normalForm": "partio",
    "id": 1397,
    "translations": [ "to leave" ]
  },
  {
    "normalForm": "poethi",
    "id": 1407,
    "translations": [ "to warm" ]
  },
  {
    "normalForm": "pilffro",
    "id": 1419,
    "translations": [ "to pilfer" ]
  },
  {
    "normalForm": "prif-ffrydio",
    "id": 1430,
    "translations": [ "to mainstream" ]
  },
  {
    "normalForm": "praffu",
    "id": 1431,
    "translations": [ "to thicken" ]
  },
  {
    "normalForm": "pallu",
    "id": 1441,
    "translations": [ "to refuse" ]
  },
  {
    "normalForm": "polioni",
    "id": 1459,
    "translations": [ "to stake" ]
  },
  {
    "normalForm": "pendwmpio",
    "id": 1461,
    "translations": [ "to doze" ]
  },
  {
    "normalForm": "prysuro",
    "id": 1465,
    "translations": [ "to hurry" ]
  },
  {
    "normalForm": "postgyfuno",
    "id": 1475,
    "translations": [ "to mailmerge" ]
  },
  {
    "normalForm": "pystylad",
    "stem": "pystyl",
    "id": 1479,
    "translations": [ "to stamp" ]
  },
  {
    "normalForm": "panicio",
    "id": 1486,
    "translations": [ "to panic" ]
  },
  {
    "normalForm": "pisio",
    "id": 1538,
    "translations": [ "to piss" ]
  },
  {
    "normalForm": "preswylio",
    "id": 1568,
    "translations": [ "to reside" ]
  },
  {
    "normalForm": "patrolio",
    "id": 1576,
    "translations": [ "to patrol" ]
  },
  {
    "normalForm": "protecto",
    "id": 1600,
    "translations": [ "to protect" ]
  },
  {
    "normalForm": "panylu",
    "id": 1630,
    "translations": [ "to dent" ]
  },
  {
    "normalForm": "pefrio",
    "id": 1637,
    "translations": [ "to twinkle" ]
  },
  {
    "normalForm": "presio",
    "id": 1639,
    "translations": [ "to press" ]
  },
  {
    "normalForm": "pyncio",
    "id": 1652,
    "translations": [ "to intone" ]
  },
  {
    "normalForm": "pwrcasu",
    "id": 1692,
    "translations": [ "to purchase" ]
  },
  {
    "normalForm": "pistyllu",
    "id": 1698,
    "translations": [ "to spout" ]
  },
  {
    "normalForm": "pwtio",
    "id": 1707,
    "translations": [ "to nudge" ]
  },
  {
    "normalForm": "pacio",
    "id": 1723,
    "translations": [ "to pack" ]
  },
  {
    "normalForm": "prepario",
    "id": 1734,
    "translations": [ "to prepare" ]
  },
  {
    "normalForm": "penelinio",
    "id": 1754,
    "translations": [ "to kneel" ]
  },
  {
    "normalForm": "pegio",
    "id": 1774,
    "translations": [ "to peg" ]
  },
  {
    "normalForm": "pinno",
    "id": 1830,
    "translations": [ "to pin" ]
  },
  {
    "normalForm": "pydlo",
    "id": 1833,
    "translations": [ "to puddle" ]
  },
  {
    "normalForm": "plaenio",
    "id": 1849,
    "translations": [ "to plane" ]
  },
  {
    "normalForm": "pesgi",
    "stem": "pasg",
    "id": 1890,
    "translations": [ "to fatten" ]
  },
  {
    "normalForm": "pregethu",
    "id": 1928,
    "translations": [ "to preach" ]
  },
  {
    "normalForm": "popio",
    "id": 1961,
    "translations": [ "to pop" ]
  },
  {
    "normalForm": "protestio",
    "id": 2015,
    "translations": [ "to protest" ]
  },
  {
    "normalForm": "prygowtha",
    "id": 2019,
    "translations": [ "to rant" ]
  },
  {
    "normalForm": "prosesu",
    "id": 2025,
    "translations": [ "to process" ]
  },
  {
    "normalForm": "presentio",
    "id": 2046,
    "translations": [ "to present" ]
  },
  {
    "normalForm": "pyllu",
    "id": 2048,
    "translations": [ "to dent" ]
  },
  {
    "normalForm": "portreadu",
    "id": 2058,
    "translations": [ "to portray" ]
  },
  {
    "normalForm": "pantio",
    "id": 2092,
    "translations": [ "to pant" ]
  },
  {
    "normalForm": "proffidio",
    "id": 2127,
    "translations": [ "to profit" ]
  },
  {
    "normalForm": "pryfedu",
    "id": 2137,
    "translations": [ "to breed worms" ]
  },
  {
    "normalForm": "pinio",
    "id": 2171,
    "translations": [ "to pin" ]
  },
  {
    "normalForm": "priodoli",
    "id": 2206,
    "translations": [ "to attribute" ]
  },
  {
    "normalForm": "priflythrennu",
    "id": 2248,
    "translations": [ "to capitalise" ]
  },
  {
    "normalForm": "prydu",
    "id": 2253,
    "translations": [ "to versify" ]
  },
  {
    "normalForm": "pibellu",
    "id": 2268,
    "translations": [ "to pipe" ]
  },
  {
    "normalForm": "pango",
    "id": 2280,
    "translations": [ "to faint" ]
  },
  {
    "normalForm": "perarogli",
    "id": 2289,
    "translations": [ "to perfume" ]
  },
  {
    "normalForm": "porthi",
    "id": 2293,
    "translations": [ "to feed" ]
  },
  {
    "normalForm": "pipian",
    "id": 2306,
    "translations": [ "to peep" ]
  },
  {
    "normalForm": "promtio",
    "id": 2355,
    "translations": [ "to prompt" ]
  },
  {
    "normalForm": "pwnio",
    "id": 2369,
    "translations": [ "to pound" ]
  },
  {
    "normalForm": "pupro",
    "id": 2386,
    "translations": [ "to pepper" ]
  },
  {
    "normalForm": "presento",
    "id": 2390,
    "translations": [ "to present" ]
  },
  {
    "normalForm": "pwyntio",
    "id": 2413,
    "translations": [ "to point" ]
  },
  {
    "normalForm": "pluo",
    "id": 2474,
    "translations": [ "to pluck feathers" ]
  },
  {
    "normalForm": "pwysleisio",
    "stem": "pwysleis",
    "id": 2483,
    "translations": [ "to emphasise" ]
  },
  {
    "normalForm": "panso",
    "id": 2504,
    "translations": [ "to take pains" ]
  },
  {
    "normalForm": "priddio",
    "id": 2514,
    "translations": [ "to earth up" ]
  },
  {
    "normalForm": "pincio",
    "id": 2529,
    "translations": [ "to adorn" ]
  },
  {
    "normalForm": "plufio",
    "id": 2550,
    "translations": [ "to pluck" ]
  },
  {
    "normalForm": "pryfocio",
    "id": 2565,
    "translations": [ "to tease" ]
  },
  {
    "normalForm": "pastynu",
    "id": 2570,
    "translations": [ "to cudgel" ]
  },
  {
    "normalForm": "pylpio",
    "id": 2614,
    "translations": [ "to pulp" ]
  },
  {
    "normalForm": "proflennu",
    "id": 2619,
    "translations": [ "to proof" ]
  },
  {
    "normalForm": "perchenogi",
    "id": 2630,
    "translations": [ "to possess" ]
  },
  {
    "normalForm": "plicio",
    "id": 2641,
    "translations": [ "to pluck" ]
  },
  {
    "normalForm": "picseleiddio",
    "id": 2661,
    "translations": [ "to pixellate" ]
  },
  {
    "normalForm": "puro",
    "id": 2665,
    "translations": [ "to purify" ]
  },
  {
    "normalForm": "paderu",
    "id": 2681,
    "translations": [ "to pray" ]
  },
  {
    "normalForm": "plwyfoli",
    "id": 2693,
    "translations": [ "to parochialise" ]
  },
  {
    "normalForm": "pellhau",
    "stem": "pellhe",
    "id": 2695,
    "translations": [ "to recede" ]
  },
  {
    "normalForm": "pytio",
    "id": 2712,
    "translations": [ "to putt" ]
  },
  {
    "normalForm": "pwrpasu",
    "id": 2715,
    "translations": [ "to intend" ]
  },
  {
    "normalForm": "prydyddu",
    "id": 2740,
    "translations": [ "to versify" ]
  },
  {
    "normalForm": "pinbwyntio",
    "id": 2761,
    "translations": [ "to pinpoint" ]
  },
  {
    "normalForm": "pastio",
    "id": 2770,
    "translations": [ "to paste" ]
  },
  {
    "normalForm": "pedlo",
    "id": 2823,
    "translations": [ "to pedal" ]
  },
  {
    "normalForm": "perchnogi",
    "id": 2826,
    "translations": [ "to possess" ]
  },
  {
    "normalForm": "pendilio",
    "id": 2839,
    "translations": [ "to oscillate" ]
  },
  {
    "normalForm": "pureiddio",
    "id": 2880,
    "translations": [ "to purify" ]
  },
  {
    "normalForm": "pawennu",
    "id": 2883,
    "translations": [ "to paw" ]
  },
  {
    "normalForm": "powdro",
    "id": 2889,
    "translations": [ "to powder" ]
  },
  {
    "normalForm": "prisio",
    "id": 2898,
    "translations": [ "to price" ]
  },
  {
    "normalForm": "ponsio",
    "id": 2899,
    "translations": [ "to muddle" ]
  },
  {
    "normalForm": "pardynu",
    "id": 2923,
    "translations": [ "to pardon" ]
  },
  {
    "normalForm": "poergarthu",
    "id": 2957,
    "translations": [ "to spit" ]
  },
  {
    "normalForm": "pitïo",
    "stem": "piti",
    "id": 2999,
    "translations": [ "to pity" ]
  },
  {
    "normalForm": "pynnu",
    "id": 3008,
    "translations": [ "to bundle" ]
  },
  {
    "normalForm": "profeidio",
    "id": 3017,
    "translations": [ "to provide" ]
  },
  {
    "normalForm": "proffesu",
    "id": 3021,
    "translations": [ "to profess" ]
  },
  {
    "normalForm": "plymio",
    "id": 3022,
    "translations": [ "to dive" ]
  },
  {
    "normalForm": "parleisio",
    "id": 3025,
    "translations": [ "to paralyse" ]
  },
  {
    "normalForm": "pontio",
    "id": 3029,
    "translations": [ "to bridge" ]
  },
  {
    "normalForm": "pipio",
    "id": 3051,
    "translations": [ "to peep" ]
  },
  {
    "normalForm": "plagio",
    "id": 3084,
    "translations": [ "to plague" ]
  },
  {
    "normalForm": "palfalu",
    "id": 3085,
    "translations": [ "to grope" ]
  },
  {
    "normalForm": "plesio",
    "id": 3095,
    "translations": [ "to please" ]
  },
  {
    "normalForm": "prydferthu",
    "id": 3096,
    "translations": [ "to beautify" ]
  },
  {
    "normalForm": "pecynnu",
    "id": 3098,
    "translations": [ "to pack" ]
  },
  {
    "normalForm": "pladuro",
    "id": 3142,
    "translations": [ "to mow with a scythe" ]
  },
  {
    "normalForm": "peuo",
    "id": 3143,
    "translations": [ "to pant" ]
  },
  {
    "normalForm": "pryderu",
    "id": 3165,
    "translations": [ "to worry" ]
  },
  {
    "normalForm": "pwyllo",
    "id": 3173,
    "translations": [ "to consider" ]
  },
  {
    "normalForm": "polisio",
    "id": 3192,
    "translations": [ "to polish" ]
  },
  {
    "normalForm": "perchynu",
    "id": 3207,
    "translations": [ "to own" ]
  },
  {
    "normalForm": "powlio",
    "id": 3244,
    "translations": [ "to bowl" ]
  },
  {
    "normalForm": "parlysu",
    "id": 3253,
    "translations": [ "to paralyse" ]
  },
  {
    "normalForm": "pwyaf",
    "id": 3276,
    "translations": [ "to beat" ]
  },
  {
    "normalForm": "pwpŵo",
    "id": 3297,
    "translations": [ "to poo" ]
  },
  {
    "normalForm": "polareiddio",
    "id": 3312,
    "translations": [ "to polarise" ]
  },
  {
    "normalForm": "plycio",
    "id": 3313,
    "translations": [ "to pluck" ]
  },
  {
    "normalForm": "pwdu",
    "id": 3320,
    "translations": [ "to sulk" ]
  },
  {
    "normalForm": "pendwmpian",
    "id": 3322,
    "translations": [ "to doze" ]
  },
  {
    "normalForm": "picedu",
    "id": 3326,
    "translations": [ "to picket" ]
  },
  {
    "normalForm": "prenio",
    "id": 3331,
    "translations": [ "to bolt" ]
  },
  {
    "normalForm": "pynio",
    "id": 3336,
    "translations": [ "to truss" ]
  },
  {
    "normalForm": "pruddhau",
    "stem": "pruddhe",
    "id": 3348,
    "translations": [ "to sadden" ]
  },
  {
    "normalForm": "pwmpio",
    "id": 3367,
    "translations": [ "to pump" ]
  },
  {
    "normalForm": "penydio",
    "id": 3368,
    "translations": [ "to penalise" ]
  },
  {
    "normalForm": "pegynu",
    "id": 3382,
    "translations": [ "to polarise" ]
  },
  {
    "normalForm": "picellu",
    "id": 3385,
    "translations": [ "to spear" ]
  },
  {
    "normalForm": "porthmona",
    "id": 3412,
    "translations": [ "to deal in cattle" ]
  },
  {
    "normalForm": "pwytho",
    "id": 3462,
    "translations": [ "to stitch" ]
  },
  {
    "normalForm": "pleidio",
    "id": 3479,
    "translations": [ "to support" ]
  },
  {
    "normalForm": "pwno",
    "id": 3495,
    "translations": [ "to hit" ]
  },
  {
    "normalForm": "piffio",
    "id": 3499,
    "translations": [ "to snigger" ]
  },
  {
    "normalForm": "planta",
    "id": 3519,
    "translations": [ "to beget" ]
  },
  {
    "normalForm": "persawru",
    "id": 3536,
    "translations": [ "to perfume" ]
  },
  {
    "normalForm": "paredio",
    "id": 3540,
    "translations": [ "to parade" ]
  },
  {
    "normalForm": "pobi",
    "id": 3551,
    "translations": [ "to bake" ]
  },
  {
    "normalForm": "peillio",
    "id": 3554,
    "translations": [ "to pollinate" ]
  },
  {
    "normalForm": "penlinio",
    "id": 3567,
    "translations": [ "to kneel" ]
  },
  {
    "normalForm": "petruso",
    "id": 3571,
    "translations": [ "to hesitate" ]
  },
  {
    "normalForm": "planio",
    "id": 3606,
    "translations": [ "to plan" ]
  },
  {
    "normalForm": "personoleiddio",
    "id": 3617,
    "translations": [ "to personalise" ]
  },
  {
    "normalForm": "procio",
    "id": 3622,
    "translations": [ "to poke" ]
  },
  {
    "normalForm": "pendroni",
    "id": 3623,
    "translations": [ "to bewilder" ]
  },
  {
    "normalForm": "pwyo",
    "stem": "pwyoi",
    "id": 3624,
    "translations": [ "to beat" ]
  },
  {
    "normalForm": "proffwydo",
    "id": 3630,
    "translations": [ "to prophesy" ]
  },
  {
    "normalForm": "practeiso",
    "id": 3653,
    "translations": [ "to practise" ]
  },
  {
    "normalForm": "prinhau",
    "stem": "prinhe",
    "id": 3655,
    "translations": [ "to diminish" ]
  },
  {
    "normalForm": "pendifadu",
    "id": 3665,
    "translations": [ "to confuse" ]
  },
  {
    "normalForm": "pocio",
    "id": 3720,
    "translations": [ "to poke" ]
  },
  {
    "normalForm": "potio",
    "id": 3737,
    "translations": [ "to tipple" ]
  },
  {
    "normalForm": "postio",
    "id": 3779,
    "translations": [ "to post" ]
  },
  {
    "normalForm": "papuro",
    "id": 3799,
    "translations": [ "to paper" ]
  },
  {
    "normalForm": "pidlach",
    "id": 3847,
    "translations": [ "to fiddle" ]
  },
  {
    "normalForm": "pwffio",
    "id": 3904,
    "translations": [ "to puff" ]
  },
  {
    "normalForm": "presenoli",
    "id": 3910,
    "translations": [ "to present" ]
  },
  {
    "normalForm": "poblogi",
    "id": 3915,
    "translations": [ "to populate" ]
  },
  {
    "normalForm": "practisio",
    "id": 3918,
    "translations": [ "to practice" ]
  },
  {
    "normalForm": "peswch",
    "stem": "pesych",
    "id": 3923,
    "translations": [ "to cough" ]
  },
  {
    "normalForm": "pendrymu",
    "id": 3929,
    "translations": [ "to be dejected" ]
  },
  {
    "normalForm": "pwlpio",
    "id": 3936,
    "translations": [ "to pulp" ]
  },
  {
    "normalForm": "pwffian",
    "id": 4005,
    "translations": [ "to puff" ]
  },
  {
    "normalForm": "proestio",
    "id": 4031,
    "translations": [ "to form a proest" ]
  },
  {
    "normalForm": "pennu",
    "id": 4082,
    "translations": [ "to determine" ]
  },
  {
    "normalForm": "pwsio",
    "id": 4096,
    "translations": [ "to push" ]
  },
  {
    "normalForm": "penglinio",
    "id": 4125,
    "translations": [ "to kneel" ]
  },
  {
    "normalForm": "pocedu",
    "id": 4152,
    "translations": [ "to pocket" ]
  },
  {
    "normalForm": "prowla",
    "id": 4173,
    "translations": [ "to prowl" ]
  },
  {
    "normalForm": "peiriannu",
    "id": 4176,
    "translations": [ "to equip" ]
  },
  {
    "normalForm": "preblan",
    "id": 4190,
    "translations": [ "to babble" ]
  },
  {
    "normalForm": "posio",
    "id": 4211,
    "translations": [ "to pose" ]
  },
  {
    "normalForm": "peryglu",
    "id": 4212,
    "translations": [ "to endanger" ]
  },
  {
    "normalForm": "plano",
    "id": 4226,
    "translations": [ "to plan" ]
  },
  {
    "normalForm": "pygu",
    "id": 4244,
    "translations": [ "to caulk" ]
  },
  {
    "normalForm": "poenydio",
    "id": 4269,
    "translations": [ "to torture" ]
  },
  {
    "normalForm": "parablu",
    "id": 4346,
    "translations": [ "to utter" ]
  },
  {
    "normalForm": "pistyllio",
    "id": 4349,
    "translations": [ "to spout" ]
  },
  {
    "normalForm": "plastro",
    "id": 4358,
    "translations": [ "to plaster" ]
  },
  {
    "normalForm": "pylu",
    "id": 4367,
    "translations": [ "to fade" ]
  },
  {
    "normalForm": "pothellu",
    "id": 4393,
    "translations": [ "to blister" ]
  },
  {
    "normalForm": "penodi",
    "id": 4397,
    "translations": [ "to appoint" ]
  },
  {
    "normalForm": "penio",
    "id": 4400,
    "translations": [ "to head" ]
  },
  {
    "normalForm": "persawrio",
    "id": 4436,
    "translations": [ "to perfume" ]
  },
  {
    "normalForm": "pensyfrdanu",
    "id": 4456,
    "translations": [ "to confuse" ]
  },
  {
    "normalForm": "plwyfo",
    "id": 4491,
    "translations": [ "to settle in a parish" ]
  },
  {
    "normalForm": "priddo",
    "id": 4500,
    "translations": [ "to inter" ]
  },
  {
    "normalForm": "parco",
    "id": 4507,
    "translations": [ "to park" ]
  },
  {
    "normalForm": "plismona",
    "id": 4515,
    "translations": [ "to police" ]
  },
  {
    "normalForm": "pererindota",
    "id": 4518,
    "translations": [ "to go on a pilgrimage" ]
  },
  {
    "normalForm": "poblogeiddio",
    "id": 4538,
    "translations": [ "to popularise" ]
  },
  {
    "normalForm": "pingio",
    "id": 4553,
    "translations": [ "to ping" ]
  },
  {
    "normalForm": "potelu",
    "id": 4578,
    "translations": [ "to bottle" ]
  },
  {
    "normalForm": "pystyladu",
    "id": 4579,
    "translations": [ "to stamp" ]
  },
  {
    "normalForm": "pletio",
    "id": 4582,
    "translations": [ "to pleat" ]
  },
  {
    "normalForm": "perffeithio",
    "id": 4586,
    "translations": [ "to perfect" ]
  },
  {
    "normalForm": "prentisio",
    "id": 4627,
    "translations": [ "to apprentice" ]
  },
  {
    "normalForm": "porfelu",
    "id": 4639,
    "translations": [ "to pasture" ]
  },
  {
    "normalForm": "practeisio",
    "id": 4643,
    "translations": [ "to practise" ]
  }
]