[
  {
    "normalForm": "unioni",
    "id": 740
  },
  {
    "normalForm": "uno",
    "id": 741
  },
  {
    "normalForm": "utganu",
    "id": 742
  },
  {
    "normalForm": "udo",
    "id": 1237,
    "translations": [ "to wail" ]
  },
  {
    "normalForm": "ubain",
    "id": 1409,
    "translations": [ "to sigh" ]
  },
  {
    "normalForm": "unoli",
    "id": 2067,
    "translations": [ "to unite" ]
  },
  {
    "normalForm": "udain",
    "id": 2126,
    "translations": [ "to howl" ]
  },
  {
    "normalForm": "ufuddhau",
    "stem": "ufuddhe",
    "id": 2569,
    "translations": [ "to obey" ]
  },
  {
    "normalForm": "uniaethu",
    "id": 2692,
    "translations": [ "to identify with" ]
  },
  {
    "normalForm": "urddo",
    "id": 3037,
    "translations": [ "to honour" ]
  },
  {
    "normalForm": "uwchraddio",
    "id": 3039,
    "translations": [ "to upgrade" ]
  },
  {
    "normalForm": "uchaf",
    "id": 3652,
    "translations": [ "to sigh" ]
  },
  {
    "normalForm": "unlledu",
    "id": 4218,
    "translations": [ "to unicast" ]
  },
  {
    "normalForm": "uwchsgilio",
    "id": 4464,
    "translations": [ "to upskill" ]
  }
]