[
  {
    "normalForm": "eisiau",
    "notes": "Eisiau is a noun that functions as a verbal noun. Because eisiau is a noun, it does not use yn with bod and has no stem, meaning it must be used periphrastically.",
    "versions": [ "isio" ],
    "isCountable": false,
    "gender": "m"
  },
  {
    "normalForm": "ennill",
    "plural": ["ennillion"],
    "gender": "m"
  },
  {
    "normalForm": "elfen"
  },
  {
    "normalForm": "eidio",
    "id": 30106,
    "translations": [ "defence" ],
    "isCountable": false,
    "gender": "m"
  },
  {
    "normalForm": "ensym",
    "id": 30121,
    "translations": [ "enzyme" ],
    "plural": [ "ensymau" ],
    "gender": "m"
  },
  {
    "normalForm": "eiddigedd",
    "id": 30126,
    "translations": [ "jealousy" ],
    "isCountable": false,
    "gender": "m"
  },
  {
    "normalForm": "eiddo",
    "id": 30163,
    "translations": [ "property" ],
    "isCountable": false,
    "gender": "m"
  },
  {
    "normalForm": "eglurdeb",
    "id": 30168,
    "translations": [ "clarity" ],
    "isCountable": false,
    "gender": "m"
  },
  {
    "normalForm": "etymoleg",
    "id": 30176,
    "translations": [ "etymology" ],
    "isCountable": false,
    "gender": "f"
  },
  {
    "normalForm": "eglurder",
    "id": 30319,
    "translations": [ "clarity" ],
    "isCountable": false,
    "gender": "m"
  },
  {
    "normalForm": "eira",
    "id": 30335,
    "translations": [ "snow" ],
    "plural": [ "eiraoedd" ],
    "gender": "m"
  },
  {
    "normalForm": "element",
    "id": 30363,
    "isCountable": false,
    "gender": "mf"
  },
  {
    "normalForm": "etholydd",
    "id": 30377,
    "translations": [ "voter" ],
    "isCountable": false,
    "gender": "m"
  },
  {
    "normalForm": "encil",
    "id": 30503,
    "translations": [ "retreat" ],
    "plural": [ "encilion" ],
    "gender": "m"
  },
  {
    "normalForm": "eiriolwr",
    "id": 30577,
    "translations": [ "advocate" ],
    "plural": [ "eiriolwragedd", "eiriolwyr" ],
    "gender": "m"
  },
  {
    "normalForm": "edafedd",
    "id": 30580,
    "translations": [ "yarn" ],
    "isCountable": false,
    "gender": "f"
  },
  {
    "normalForm": "eiriolaeth",
    "id": 30696,
    "translations": [ "advocacy" ],
    "isCountable": false,
    "gender": "f"
  },
  {
    "normalForm": "enwebiad",
    "id": 30712,
    "translations": [ "nomination" ],
    "plural": [ "enwebiadau" ],
    "gender": "m"
  },
  {
    "normalForm": "esgudrwydd",
    "id": 30735,
    "translations": [ "quickness" ],
    "isCountable": false,
    "gender": "m"
  },
  {
    "normalForm": "etholwr",
    "id": 30738,
    "translations": [ "voter" ],
    "plural": [ "etholwyr" ],
    "gender": "m"
  },
  {
    "normalForm": "eliffant",
    "id": 30750,
    "translations": [ "elephant" ],
    "plural": [ "eliffantod", "eliffantiaid" ],
    "gender": "m"
  },
  {
    "normalForm": "englynwr",
    "id": 30774,
    "translations": [ "composer of ‘englynion’" ],
    "isCountable": false,
    "gender": "m"
  },
  {
    "normalForm": "ebost",
    "id": 30886,
    "translations": [ "email" ],
    "plural": [ "e-byst", "ebyst", "ebostau", "e_byst" ],
    "gender": "m"
  },
  {
    "normalForm": "egwyddor",
    "id": 30904,
    "translations": [ "principle" ],
    "plural": [ "egwyddorion" ],
    "gender": "f"
  },
  {
    "normalForm": "eboni",
    "id": 30913,
    "translations": [ "black" ],
    "isCountable": false,
    "gender": "m"
  },
  {
    "normalForm": "episod",
    "id": 30921,
    "translations": [ "episode" ],
    "plural": [ "episodau" ],
    "gender": "m"
  },
  {
    "normalForm": "eitem",
    "id": 30938,
    "translations": [ "item" ],
    "plural": [ "eitemau" ],
    "gender": "m"
  },
  {
    "normalForm": "entrepreneur",
    "id": 31149,
    "translations": [ "entrepreneur" ],
    "plural": [ "entrepreneuriaid" ],
    "gender": "m"
  },
  {
    "normalForm": "etholiad",
    "id": 31184,
    "translations": [ "election" ],
    "plural": [ "etholiadau" ],
    "gender": "m"
  },
  {
    "normalForm": "etifeddiaeth",
    "id": 31316,
    "translations": [ "heritage" ],
    "plural": [ "etifeddiaethau", "etifeddiaethau" ],
    "gender": "f"
  },
  {
    "normalForm": "eco",
    "id": 31335,
    "translations": [ "echo" ],
    "isCountable": false,
    "gender": "m"
  },
  {
    "normalForm": "eicon",
    "id": 31342,
    "translations": [ "icon" ],
    "plural": [ "eiconau" ],
    "gender": "m"
  },
  {
    "normalForm": "e-recriwtio",
    "id": 31346,
    "translations": [ "e-recruitment" ],
    "isCountable": false,
    "gender": "m"
  },
  {
    "normalForm": "erchyllter",
    "id": 31351,
    "translations": [ "horror" ],
    "plural": [ "erchyllterau" ],
    "gender": "m"
  },
  {
    "normalForm": "ewyllysiaeth",
    "id": 31403,
    "translations": [ "volition" ],
    "isCountable": false,
    "gender": "f"
  },
  {
    "normalForm": "ego",
    "id": 31412,
    "translations": [ "ego" ],
    "isCountable": false,
    "gender": "m"
  },
  {
    "normalForm": "egr",
    "id": 31414,
    "translations": [ "acre" ],
    "plural": [ "egrau" ],
    "gender": "f"
  },
  {
    "normalForm": "economi",
    "id": 31438,
    "translations": [ "economy" ],
    "plural": [ "economiau", "economïau" ],
    "gender": "mf"
  },
  {
    "normalForm": "eil",
    "id": 31447,
    "translations": [ "aisle" ],
    "plural": [ "eiliau" ],
    "gender": "f"
  },
  {
    "normalForm": "estron",
    "id": 31469,
    "translations": [ "foreigner" ],
    "plural": [ "estroniaid" ],
    "gender": "m"
  },
  {
    "normalForm": "elc",
    "id": 31504,
    "translations": [ "elk" ],
    "isCountable": false,
    "gender": "m"
  },
  {
    "normalForm": "elf",
    "id": 31505,
    "translations": [ "element" ],
    "plural": [ "elfau" ],
    "gender": "mf"
  },
  {
    "normalForm": "eli",
    "id": 31507,
    "translations": [ "ointment" ],
    "plural": [ "elïoedd" ],
    "gender": "m"
  },
  {
    "normalForm": "ell",
    "id": 31508,
    "translations": [ "ell" ],
    "isCountable": false,
    "gender": "f"
  },
  {
    "normalForm": "elw",
    "id": 31515,
    "translations": [ "profit" ],
    "plural": [ "elwau" ],
    "gender": "m"
  },
  {
    "normalForm": "enw",
    "id": 31541,
    "translations": [ "name" ],
    "plural": [ "enwau" ],
    "gender": "m"
  },
  {
    "normalForm": "eog",
    "id": 31553,
    "translations": [ "salmon" ],
    "plural": [ "eogiaid" ],
    "gender": "m"
  },
  {
    "normalForm": "eos",
    "id": 31560,
    "translations": [ "nightingale" ],
    "plural": [ "eosiaid" ],
    "gender": "f"
  },
  {
    "normalForm": "estrys",
    "id": 31580,
    "translations": [ "ostrich" ],
    "plural": [ "estrysiaid" ],
    "gender": "mf"
  },
  {
    "normalForm": "effeithiad",
    "id": 31582,
    "translations": [ "effecting" ],
    "plural": [ "effeithiadau" ],
    "gender": "m"
  },
  {
    "normalForm": "era",
    "id": 31602,
    "translations": [ "era" ],
    "isCountable": false,
    "gender": "f"
  },
  {
    "normalForm": "erw",
    "id": 31615,
    "translations": [ "acre" ],
    "plural": [ "erwau" ],
    "gender": "f"
  },
  {
    "normalForm": "eiddilwch",
    "id": 31652,
    "translations": [ "weakness" ],
    "isCountable": false,
    "gender": "m"
  },
  {
    "normalForm": "egluryn",
    "id": 31679,
    "translations": [ "caption" ],
    "plural": [ "eglurynnau" ],
    "gender": "m"
  },
  {
    "normalForm": "etifeddwr",
    "id": 31706,
    "translations": [ "inheritor" ],
    "isCountable": false,
    "gender": "m"
  },
  {
    "normalForm": "eildro",
    "id": 31713,
    "translations": [ "a second time" ],
    "isCountable": false,
    "gender": "m"
  },
  {
    "normalForm": "eithafrwydd",
    "id": 31822,
    "translations": [ "extremism" ],
    "isCountable": false,
    "gender": "m"
  },
  {
    "normalForm": "ebrandy",
    "id": 31855,
    "translations": [ "baiting-house" ],
    "isCountable": false,
    "gender": "m"
  },
  {
    "normalForm": "ecsbloetiaeth",
    "id": 31862,
    "translations": [ "exploitation" ],
    "isCountable": false,
    "gender": "f"
  },
  {
    "normalForm": "eglurwch",
    "id": 31864,
    "translations": [ "explanation" ],
    "isCountable": false,
    "gender": "m"
  },
  {
    "normalForm": "electron",
    "id": 31881,
    "translations": [ "electron" ],
    "plural": [ "electronau" ],
    "gender": "m"
  },
  {
    "normalForm": "electrod",
    "id": 31891,
    "translations": [ "electrode" ],
    "plural": [ "electrodau" ],
    "gender": "m"
  },
  {
    "normalForm": "etifeddeg",
    "id": 31903,
    "translations": [ "heredity" ],
    "isCountable": false,
    "gender": "f"
  },
  {
    "normalForm": "ebargofiant",
    "id": 31943,
    "translations": [ "oblivion" ],
    "isCountable": false,
    "gender": "m"
  },
  {
    "normalForm": "electrig",
    "id": 32040,
    "translations": [ "electricity" ],
    "isCountable": false,
    "gender": "m"
  },
  {
    "normalForm": "eunuch",
    "id": 32045,
    "translations": [ "eunuch" ],
    "plural": [ "eunuchiaid" ],
    "gender": "m"
  },
  {
    "normalForm": "economeg",
    "id": 32057,
    "translations": [ "economics" ],
    "isCountable": false,
    "gender": "f"
  },
  {
    "normalForm": "esgusawd",
    "id": 32075,
    "translations": [ "excuse" ],
    "plural": [ "esgusodion" ],
    "gender": "m"
  },
  {
    "normalForm": "eclips",
    "id": 32080,
    "translations": [ "eclipse" ],
    "plural": [ "eclipsau" ],
    "gender": "m"
  },
  {
    "normalForm": "ecwiti",
    "id": 32134,
    "translations": [ "equity" ],
    "plural": [ "ecwitïau" ],
    "gender": "m"
  },
  {
    "normalForm": "erthyl",
    "id": 32135,
    "translations": [ "abortion" ],
    "isCountable": false,
    "gender": "m"
  },
  {
    "normalForm": "eb",
    "id": 32180,
    "plural": [ "ebion" ],
    "gender": "m"
  },
  {
    "normalForm": "eg",
    "id": 32182,
    "translations": [ "acre" ],
    "plural": [ "egau" ],
    "gender": "f"
  },
  {
    "normalForm": "el",
    "id": 32185,
    "translations": [ "spirit" ],
    "plural": [ "elod" ],
    "gender": "m"
  },
  {
    "normalForm": "encyd",
    "id": 32186,
    "translations": [ "space" ],
    "isCountable": false,
    "gender": "mf"
  },
  {
    "normalForm": "elor",
    "id": 32228,
    "translations": [ "bier" ],
    "isCountable": false,
    "gender": "f"
  },
  {
    "normalForm": "effeithiwr",
    "id": 32232,
    "translations": [ "efficient" ],
    "plural": [ "effeithwyr" ],
    "gender": "m"
  },
  {
    "normalForm": "elusendy",
    "id": 32260,
    "translations": [ "hospital" ],
    "plural": [ "elusendai" ],
    "gender": "m"
  },
  {
    "normalForm": "eirinen",
    "id": 32347,
    "translations": [ "plum" ],
    "plural": [ "eirin" ],
    "gender": "f"
  },
  {
    "normalForm": "emynyddiaeth",
    "id": 32354,
    "translations": [ "hymnology" ],
    "isCountable": false,
    "gender": "f"
  },
  {
    "normalForm": "esmwythyd",
    "id": 32369,
    "translations": [ "ease" ],
    "isCountable": false,
    "gender": "m"
  },
  {
    "normalForm": "esboniadaeth",
    "id": 32449,
    "translations": [ "exposition" ],
    "isCountable": false,
    "gender": "f"
  },
  {
    "normalForm": "endid",
    "id": 32570,
    "translations": [ "entity" ],
    "plural": [ "endidau" ],
    "gender": "mf"
  },
  {
    "normalForm": "echnos",
    "id": 32571,
    "translations": [ "night before last" ],
    "isCountable": false,
    "gender": "f"
  },
  {
    "normalForm": "endif",
    "id": 32574,
    "translations": [ "endive" ],
    "isCountable": false,
    "gender": "f"
  },
  {
    "normalForm": "eneidegwr",
    "id": 32586,
    "translations": [ "psychologist" ],
    "plural": [ "eneidegwyr" ],
    "gender": "m"
  },
  {
    "normalForm": "engrafiad",
    "id": 32621,
    "translations": [ "engraving" ],
    "plural": [ "engrafiadau" ],
    "gender": "m"
  },
  {
    "normalForm": "enhudded",
    "id": 32626,
    "plural": [ "enhuddedau" ],
    "gender": "f"
  },
  {
    "normalForm": "enbydrwydd",
    "id": 32683,
    "translations": [ "peril" ],
    "isCountable": false,
    "gender": "m"
  },
  {
    "normalForm": "edryched",
    "id": 32841,
    "isCountable": false,
    "gender": "m"
  },
  {
    "normalForm": "e-ddysgu",
    "id": 32852,
    "translations": [ "e-learning" ],
    "isCountable": false,
    "gender": "m"
  },
  {
    "normalForm": "enfilop",
    "id": 32869,
    "translations": [ "envelope" ],
    "plural": [ "enfilops" ],
    "gender": "m"
  },
  {
    "normalForm": "ethos",
    "id": 32870,
    "translations": [ "ethos" ],
    "isCountable": false,
    "gender": "m"
  },
  {
    "normalForm": "epistemeg",
    "id": 32881,
    "translations": [ "epistemology" ],
    "isCountable": false,
    "gender": "f"
  },
  {
    "normalForm": "enwyn",
    "id": 32913,
    "translations": [ "buttermilk" ],
    "isCountable": false,
    "gender": "m"
  },
  {
    "normalForm": "eisteddfa",
    "id": 32914,
    "translations": [ "seat" ],
    "plural": [ "eisteddfâu" ],
    "gender": "f"
  },
  {
    "normalForm": "enillydd gwobr",
    "id": 32927,
    "translations": [ "prizewinner" ],
    "plural": [ "enillwyr gwobrau" ],
    "gender": "m"
  },
  {
    "normalForm": "enfys",
    "id": 32949,
    "translations": [ "rainbow" ],
    "plural": [ "enfysau", "enfysys", "enfau", "enfysoedd" ],
    "gender": "mf"
  },
  {
    "normalForm": "eisteddle",
    "id": 32963,
    "translations": [ "seat" ],
    "plural": [ "eisteddleoedd" ],
    "gender": "mf"
  },
  {
    "normalForm": "emyn",
    "id": 32978,
    "translations": [ "hymn" ],
    "plural": [ "emynydd", "emynau" ],
    "gender": "m"
  },
  {
    "normalForm": "ether",
    "id": 33014,
    "translations": [ "ether" ],
    "plural": [ "ethra" ],
    "gender": "f"
  },
  {
    "normalForm": "emyr",
    "id": 33044,
    "translations": [ "king" ],
    "isCountable": false,
    "gender": "m"
  },
  {
    "normalForm": "eglurhad",
    "id": 33131,
    "translations": [ "clarification" ],
    "plural": [ "eglurhadau" ],
    "gender": "m"
  },
  {
    "normalForm": "echdyniad",
    "id": 33226,
    "translations": [ "extraction" ],
    "plural": [ "echdyniadau" ],
    "gender": "m"
  },
  {
    "normalForm": "ebostydd",
    "id": 33262,
    "translations": [ "mailer" ],
    "plural": [ "ebostyddion" ],
    "gender": "m"
  },
  {
    "normalForm": "empeiraeth",
    "id": 33395,
    "translations": [ "eimpiricism" ],
    "isCountable": false,
    "gender": "f"
  },
  {
    "normalForm": "edifeirwch",
    "id": 33409,
    "translations": [ "repentance" ],
    "isCountable": false,
    "gender": "mf"
  },
  {
    "normalForm": "enwad",
    "id": 33450,
    "translations": [ "sect" ],
    "plural": [ "enwadau" ],
    "gender": "m"
  },
  {
    "normalForm": "eurwedd",
    "id": 33463,
    "translations": [ "golden" ],
    "isCountable": false,
    "gender": "mf"
  },
  {
    "normalForm": "emynydd",
    "id": 33468,
    "translations": [ "hymnist" ],
    "plural": [ "emynyddesau" ],
    "gender": "m"
  },
  {
    "normalForm": "egrid",
    "id": 33492,
    "translations": [ "oxide" ],
    "plural": [ "egridau" ],
    "gender": "m"
  },
  {
    "normalForm": "eisteddfod",
    "id": 33509,
    "translations": [ "eisteddfod" ],
    "plural": [ "eisteddfodau", "steddfodau" ],
    "gender": "f"
  },
  {
    "normalForm": "eidion",
    "id": 33652,
    "translations": [ "neat" ],
    "plural": [ "eidionnau" ],
    "gender": "m"
  },
  {
    "normalForm": "efengylydd",
    "id": 33694,
    "translations": [ "evangelist" ],
    "isCountable": false,
    "gender": "m"
  },
  {
    "normalForm": "ewythr",
    "id": 33715,
    "translations": [ "uncle" ],
    "plural": [ "ewythredd" ],
    "gender": "m"
  },
  {
    "normalForm": "euogrwydd",
    "id": 33735,
    "translations": [ "guilt" ],
    "isCountable": false,
    "gender": "m"
  },
  {
    "normalForm": "etheg",
    "id": 33745,
    "translations": [ "ethics" ],
    "isCountable": false,
    "gender": "f"
  },
  {
    "normalForm": "erthylydd",
    "id": 33782,
    "translations": [ "abortionist" ],
    "isCountable": false,
    "gender": "m"
  },
  {
    "normalForm": "enwog",
    "id": 33795,
    "translations": [ "people of renown" ],
    "plural": [ "enwogion" ],
    "gender": "m"
  },
  {
    "normalForm": "ecoleg",
    "id": 33850,
    "translations": [ "ecology" ],
    "isCountable": false,
    "gender": "f"
  },
  {
    "normalForm": "erydiad",
    "id": 33857,
    "translations": [ "erosion" ],
    "isCountable": false,
    "gender": "m"
  },
  {
    "normalForm": "echdynnydd",
    "id": 33902,
    "translations": [ "extractor" ],
    "plural": [ "echdynyddion" ],
    "gender": "m"
  },
  {
    "normalForm": "eginiad",
    "id": 33905,
    "translations": [ "germination" ],
    "isCountable": false,
    "gender": "m"
  },
  {
    "normalForm": "ecsám",
    "id": 33982,
    "translations": [ "examination" ],
    "plural": [ "ecsáms" ],
    "gender": "f"
  },
  {
    "normalForm": "emynwr",
    "id": 33990,
    "translations": [ "hymnist" ],
    "plural": [ "emynwyr" ],
    "gender": "m"
  },
  {
    "normalForm": "esgus",
    "id": 34042,
    "translations": [ "excuse" ],
    "plural": [ "esgusion" ],
    "gender": "m"
  },
  {
    "normalForm": "esgob",
    "id": 34137,
    "translations": [ "bishop" ],
    "plural": [ "esgobion" ],
    "gender": "m"
  },
  {
    "normalForm": "esgor",
    "id": 34153,
    "translations": [ "delivery" ],
    "plural": [ "esgorau" ],
    "gender": "m"
  },
  {
    "normalForm": "esgyniad",
    "id": 34154,
    "isCountable": false,
    "gender": "m"
  },
  {
    "normalForm": "ebwch",
    "id": 34160,
    "translations": [ "sigh" ],
    "plural": [ "ebychion" ],
    "gender": "mf"
  },
  {
    "normalForm": "estronwr",
    "id": 34193,
    "translations": [ "foreigner" ],
    "plural": [ "estronwyr" ],
    "gender": "m"
  },
  {
    "normalForm": "eglwyswr",
    "id": 34212,
    "translations": [ "churchman" ],
    "plural": [ "eglwyswragedd" ],
    "gender": "m"
  },
  {
    "normalForm": "emirad",
    "id": 34227,
    "translations": [ "emirate" ],
    "isCountable": false,
    "gender": "m"
  },
  {
    "normalForm": "epilepsi",
    "id": 34270,
    "translations": [ "epilepsy" ],
    "isCountable": false,
    "gender": "m"
  },
  {
    "normalForm": "esgid",
    "id": 34271,
    "translations": [ "shoe" ],
    "plural": [ "esgidiau", "sgidiau", "sgidie", "sgidie", "esgidie" ],
    "gender": "f"
  },
  {
    "normalForm": "eneideg",
    "id": 34273,
    "translations": [ "psychology" ],
    "isCountable": false,
    "gender": "f"
  },
  {
    "normalForm": "eilrif",
    "id": 34274,
    "translations": [ "even number" ],
    "plural": [ "eilrifau" ],
    "gender": "m"
  },
  {
    "normalForm": "e_bost",
    "id": 34448,
    "translations": [ "email" ],
    "plural": [ "e_bosts" ],
    "gender": "m"
  },
  {
    "normalForm": "efengyl",
    "id": 34455,
    "translations": [ "gospel" ],
    "plural": [ "efengylau" ],
    "gender": "f"
  },
  {
    "normalForm": "erthyliad",
    "id": 34470,
    "translations": [ "abortion" ],
    "isCountable": false,
    "gender": "m"
  },
  {
    "normalForm": "efryd",
    "id": 34483,
    "translations": [ "study" ],
    "plural": [ "efrydiau" ],
    "gender": "m"
  },
  {
    "normalForm": "epil",
    "id": 34499,
    "translations": [ "offspring" ],
    "isCountable": false,
    "gender": "mf"
  },
  {
    "normalForm": "epig",
    "id": 34502,
    "translations": [ "epic" ],
    "isCountable": false,
    "gender": "f"
  },
  {
    "normalForm": "eithin",
    "id": 34540,
    "translations": [ "furze" ],
    "plural": [ "eithin" ],
    "gender": "m"
  },
  {
    "normalForm": "eglwysig",
    "id": 34542,
    "translations": [ "little church" ],
    "isCountable": false,
    "gender": "f"
  },
  {
    "normalForm": "ewinrhew",
    "id": 34547,
    "translations": [ "frostbite" ],
    "isCountable": false,
    "gender": "m"
  },
  {
    "normalForm": "epoc",
    "id": 34569,
    "translations": [ "epoch" ],
    "plural": [ "epocau" ],
    "gender": "mf"
  },
  {
    "normalForm": "ewyllys",
    "id": 34610,
    "translations": [ "will" ],
    "plural": [ "ewyllysiau" ],
    "gender": "f"
  },
  {
    "normalForm": "echel",
    "id": 34637,
    "translations": [ "axle" ],
    "plural": [ "echelau" ],
    "gender": "f"
  },
  {
    "normalForm": "edmygwr",
    "id": 34732,
    "translations": [ "lover" ],
    "plural": [ "edmygwyr" ],
    "gender": "m"
  },
  {
    "normalForm": "e-asesu",
    "id": 34886,
    "translations": [ "e-assessment" ],
    "isCountable": false,
    "gender": "m"
  },
  {
    "normalForm": "enwadur cyffredin",
    "id": 34893,
    "translations": [ "common denominator" ],
    "plural": [ "enwaduron cyffredin" ],
    "gender": "m"
  },
  {
    "normalForm": "encôr",
    "id": 34901,
    "translations": [ "encore" ],
    "isCountable": false,
    "gender": "m"
  },
  {
    "normalForm": "engyl",
    "id": 34926,
    "translations": [ "angel" ],
    "plural": [ "engylion" ],
    "gender": "m"
  },
  {
    "normalForm": "ebychnod",
    "id": 35009,
    "translations": [ "exclamation mark" ],
    "plural": [ "ebychnodau" ],
    "gender": "m"
  },
  {
    "normalForm": "ennaint",
    "id": 35040,
    "translations": [ "ointment" ],
    "isCountable": false,
    "gender": "mf"
  },
  {
    "normalForm": "enwadur",
    "id": 35059,
    "translations": [ "denominator" ],
    "plural": [ "enwaduron" ],
    "gender": "m"
  },
  {
    "normalForm": "eisteddiad",
    "id": 35145,
    "translations": [ "sitter" ],
    "plural": [ "eisteddiaid", "eisteddiadau", "eisteddiadau" ],
    "gender": "m"
  },
  {
    "normalForm": "effeithlonrwydd",
    "id": 35149,
    "translations": [ "efficiency" ],
    "isCountable": false,
    "gender": "m"
  },
  {
    "normalForm": "erlynydd",
    "id": 35252,
    "translations": [ "complainant" ],
    "isCountable": false,
    "gender": "m"
  },
  {
    "normalForm": "elech",
    "id": 35292,
    "translations": [ "slate" ],
    "plural": [ "elechau" ],
    "gender": "f"
  },
  {
    "normalForm": "eisteddfodwr",
    "id": 35295,
    "translations": [ "eisteddfod attendee" ],
    "plural": [ "eisteddfodwyr", "eisteddfodwyr" ],
    "gender": "m"
  },
  {
    "normalForm": "egwyl",
    "id": 35300,
    "translations": [ "break" ],
    "plural": [ "egwyliau", "egwylion" ],
    "gender": "f"
  },
  {
    "normalForm": "efaciwî",
    "id": 35320,
    "translations": [ "evacuee" ],
    "plural": [ "efaciwîs" ],
    "gender": "mf"
  },
  {
    "normalForm": "eilyn",
    "id": 35343,
    "translations": [ "weak beer" ],
    "isCountable": false,
    "gender": "m"
  },
  {
    "normalForm": "eilun",
    "id": 35426,
    "translations": [ "image" ],
    "isCountable": false,
    "gender": "mf"
  },
  {
    "normalForm": "efelychwr",
    "id": 35445,
    "translations": [ "imitator" ],
    "plural": [ "efelychwyr" ],
    "gender": "m"
  },
  {
    "normalForm": "estyniad",
    "id": 35448,
    "translations": [ "extension" ],
    "plural": [ "estyniadau" ],
    "gender": "m"
  },
  {
    "normalForm": "enwadaeth",
    "id": 35459,
    "translations": [ "denominationalism" ],
    "isCountable": false,
    "gender": "f"
  },
  {
    "normalForm": "eiddew",
    "id": 35485,
    "translations": [ "ivy" ],
    "isCountable": false,
    "gender": "m"
  },
  {
    "normalForm": "eithafwr",
    "id": 35520,
    "translations": [ "extremist" ],
    "plural": [ "eithafwyr" ],
    "gender": "m"
  },
  {
    "normalForm": "esemptiad",
    "id": 35541,
    "translations": [ "exemption" ],
    "plural": [ "esemptiadau" ],
    "gender": "m"
  },
  {
    "normalForm": "empathi",
    "id": 35555,
    "translations": [ "empathy" ],
    "isCountable": false,
    "gender": "m"
  },
  {
    "normalForm": "eilbeth",
    "id": 35561,
    "translations": [ "second thing" ],
    "isCountable": false,
    "gender": "m"
  },
  {
    "normalForm": "echelin fertigol",
    "id": 35575,
    "translations": [ "vertical axe" ],
    "plural": [ "echelinau fertigol" ],
    "gender": "f"
  },
  {
    "normalForm": "eangfrydedd",
    "id": 35597,
    "translations": [ "magnanimity" ],
    "isCountable": false,
    "gender": "m"
  },
  {
    "normalForm": "esblygiad",
    "id": 35615,
    "translations": [ "evolution" ],
    "plural": [ "esblygiadau" ],
    "gender": "m"
  },
  {
    "normalForm": "etholedigaeth",
    "id": 35695,
    "translations": [ "election" ],
    "plural": [ "etholedigaethau" ],
    "gender": "f"
  },
  {
    "normalForm": "eirlys",
    "id": 35770,
    "translations": [ "snowdrop" ],
    "plural": [ "eirlysiau" ],
    "gender": "m"
  },
  {
    "normalForm": "enillwyr",
    "id": 35808,
    "translations": [ "winner" ],
    "plural": [ "enillwr" ],
    "gender": "m"
  },
  {
    "normalForm": "economegwr",
    "id": 35832,
    "translations": [ "economist" ],
    "plural": [ "economegwyr" ],
    "gender": "m"
  },
  {
    "normalForm": "elastigedd",
    "id": 35851,
    "translations": [ "elasticity" ],
    "isCountable": false,
    "gender": "m"
  },
  {
    "normalForm": "eglwys",
    "id": 35853,
    "translations": [ "church goer" ],
    "plural": [ "eglwysi" ],
    "gender": "f"
  },
  {
    "normalForm": "einioes",
    "id": 35885,
    "translations": [ "lifetime" ],
    "isCountable": false,
    "gender": "f"
  },
  {
    "normalForm": "esgair",
    "id": 35896,
    "translations": [ "leg" ],
    "plural": [ "esgeirau" ],
    "gender": "f"
  },
  {
    "normalForm": "enciliad",
    "id": 35906,
    "translations": [ "fugitive" ],
    "isCountable": false,
    "gender": "m"
  },
  {
    "normalForm": "eithriad",
    "id": 35994,
    "translations": [ "exception" ],
    "plural": [ "eithriadau" ],
    "gender": "m"
  },
  {
    "normalForm": "erlidiwr",
    "id": 35997,
    "translations": [ "pursuer" ],
    "plural": [ "erlidwyr" ],
    "gender": "m"
  },
  {
    "normalForm": "erlyniad",
    "id": 36001,
    "translations": [ "pursuer" ],
    "plural": [ "erlyniaid", "erlyniadau" ],
    "gender": "m"
  },
  {
    "normalForm": "eryr",
    "id": 36010,
    "translations": [ "eagle" ],
    "plural": [ "eryrod", "eryri" ],
    "gender": "m"
  },
  {
    "normalForm": "eryl",
    "id": 36012,
    "plural": [ "eryloedd" ],
    "gender": "f"
  },
  {
    "normalForm": "e-hyfforddi",
    "id": 36016,
    "translations": [ "e-training" ],
    "isCountable": false,
    "gender": "m"
  },
  {
    "normalForm": "ecstasi",
    "id": 36042,
    "translations": [ "ecstasy" ],
    "plural": [ "ecstasis" ],
    "gender": "m"
  },
  {
    "normalForm": "elitiaeth",
    "id": 36071,
    "translations": [ "elitism" ],
    "isCountable": false,
    "gender": "f"
  },
  {
    "normalForm": "esboniwr",
    "id": 36091,
    "translations": [ "expositor" ],
    "plural": [ "esbonwyr" ],
    "gender": "m"
  },
  {
    "normalForm": "eciwmeniaeth",
    "id": 36130,
    "translations": [ "ecumenism" ],
    "isCountable": false,
    "gender": "f"
  },
  {
    "normalForm": "eneidydd",
    "id": 36140,
    "translations": [ "animist" ],
    "plural": [ "eneidyddion" ],
    "gender": "m"
  },
  {
    "normalForm": "erlyniaeth",
    "id": 36166,
    "translations": [ "chasing" ],
    "plural": [ "erlyniaethau" ],
    "gender": "f"
  },
  {
    "normalForm": "erchwyn",
    "id": 36182,
    "translations": [ "bedside" ],
    "isCountable": false,
    "gender": "mf"
  },
  {
    "normalForm": "eingion",
    "id": 36193,
    "translations": [ "anvil" ],
    "isCountable": false,
    "gender": "mf"
  },
  {
    "normalForm": "erfyniad",
    "id": 36242,
    "translations": [ "request" ],
    "plural": [ "erfyniadau" ],
    "gender": "m"
  },
  {
    "normalForm": "erlyniwr",
    "id": 36276,
    "translations": [ "follower" ],
    "plural": [ "erlynwyr" ],
    "gender": "m"
  },
  {
    "normalForm": "e-fasnach",
    "id": 36278,
    "translations": [ "e-commerce" ],
    "isCountable": false,
    "gender": "f"
  },
  {
    "normalForm": "eiddgarwch",
    "id": 36283,
    "translations": [ "enthusiasm" ],
    "isCountable": false,
    "gender": "m"
  },
  {
    "normalForm": "eurgylch",
    "id": 36287,
    "translations": [ "hoop" ],
    "isCountable": false,
    "gender": "m"
  },
  {
    "normalForm": "eilir",
    "id": 36342,
    "translations": [ "spring" ],
    "plural": [ "eilirau" ],
    "gender": "mf"
  },
  {
    "normalForm": "effeithlonedd",
    "id": 36379,
    "translations": [ "efficiency" ],
    "plural": [ "effeithloneddau" ],
    "gender": "m"
  },
  {
    "normalForm": "ebol",
    "id": 36399,
    "translations": [ "colt" ],
    "isCountable": false,
    "gender": "m"
  },
  {
    "normalForm": "esgynfa",
    "id": 36464,
    "translations": [ "ascent" ],
    "isCountable": false,
    "gender": "f"
  },
  {
    "normalForm": "e-gyhoeddi",
    "id": 36518,
    "translations": [ "e-publishing" ],
    "isCountable": false,
    "gender": "m"
  },
  {
    "normalForm": "enwaediad",
    "id": 36527,
    "translations": [ "circumcision" ],
    "isCountable": false,
    "gender": "m"
  },
  {
    "normalForm": "enillydd",
    "id": 36592,
    "translations": [ "winner" ],
    "isCountable": false,
    "gender": "m"
  },
  {
    "normalForm": "eilunaddoliaeth",
    "id": 36610,
    "translations": [ "idolatry" ],
    "isCountable": false,
    "gender": "mf"
  },
  {
    "normalForm": "elitydd",
    "id": 36611,
    "translations": [ "elitist" ],
    "plural": [ "elitwyr" ],
    "gender": "m"
  },
  {
    "normalForm": "eiriolydd",
    "id": 36627,
    "translations": [ "advocate" ],
    "plural": [ "eiriolyddesau" ],
    "gender": "m"
  },
  {
    "normalForm": "eironi",
    "id": 36690,
    "translations": [ "irony" ],
    "isCountable": false,
    "gender": "m"
  },
  {
    "normalForm": "enrhifiad",
    "id": 36745,
    "translations": [ "evaluation" ],
    "plural": [ "enrhifiadau" ],
    "gender": "m"
  },
  {
    "normalForm": "eithafiaeth",
    "id": 36754,
    "translations": [ "extremism" ],
    "isCountable": false,
    "gender": "f"
  },
  {
    "normalForm": "e-lythyr",
    "id": 36758,
    "translations": [ "e-letter" ],
    "plural": [ "elythyrau", "e-lythyrau" ],
    "gender": "m"
  },
  {
    "normalForm": "enigma",
    "id": 36798,
    "translations": [ "enigma" ],
    "isCountable": false,
    "gender": "f"
  },
  {
    "normalForm": "ebychiad",
    "id": 36818,
    "translations": [ "exclamation" ],
    "plural": [ "ebychiadau" ],
    "gender": "m"
  },
  {
    "normalForm": "edliwiad",
    "id": 36962,
    "translations": [ "reproaching" ],
    "plural": [ "edliwiadau" ],
    "gender": "m"
  },
  {
    "normalForm": "euros",
    "id": 36979,
    "translations": [ "sunflower" ],
    "plural": [ "euros" ],
    "gender": "m"
  },
  {
    "normalForm": "euron",
    "id": 36983,
    "translations": [ "laburnum" ],
    "isCountable": false,
    "gender": "f"
  },
  {
    "normalForm": "erial",
    "id": 37040,
    "translations": [ "aerial" ],
    "isCountable": false,
    "gender": "f"
  },
  {
    "normalForm": "eurych",
    "id": 37062,
    "translations": [ "goldsmith" ],
    "plural": [ "eurychod" ],
    "gender": "m"
  },
  {
    "normalForm": "echelin lorwedd",
    "id": 37108,
    "translations": [ "horizontal axe" ],
    "plural": [ "echelinau llorwedd" ],
    "gender": "f"
  },
  {
    "normalForm": "esboniad",
    "id": 37123,
    "translations": [ "explanation" ],
    "plural": [ "esboniadau" ],
    "gender": "m"
  },
  {
    "normalForm": "ergyd",
    "id": 37164,
    "translations": [ "blows" ],
    "plural": [ "ergydion" ],
    "gender": "mf"
  },
  {
    "normalForm": "ethryb",
    "id": 37171,
    "translations": [ "cause" ],
    "isCountable": false,
    "gender": "mf"
  },
  {
    "normalForm": "ebill",
    "id": 37189,
    "translations": [ "auger" ],
    "isCountable": false,
    "gender": "mf"
  },
  {
    "normalForm": "esgobaeth",
    "id": 37201,
    "translations": [ "diocese" ],
    "plural": [ "esgobaethau" ],
    "gender": "f"
  },
  {
    "normalForm": "edmygedd",
    "id": 37213,
    "translations": [ "admiration" ],
    "isCountable": false,
    "gender": "m"
  },
  {
    "normalForm": "effeithiolrwydd",
    "id": 37242,
    "translations": [ "effectiveness" ],
    "isCountable": false,
    "gender": "m"
  },
  {
    "normalForm": "effaith",
    "id": 37252,
    "translations": [ "effect" ],
    "plural": [ "effeithiau" ],
    "gender": "f"
  },
  {
    "normalForm": "elfed",
    "id": 37264,
    "translations": [ "autumn" ],
    "isCountable": false,
    "gender": "m"
  },
  {
    "normalForm": "elwch",
    "id": 37283,
    "translations": [ "joy" ],
    "isCountable": false,
    "gender": "m"
  },
  {
    "normalForm": "esgusodai",
    "id": 37295,
    "translations": [ "palliative" ],
    "plural": [ "esgusodeion" ],
    "gender": "mf"
  },
  {
    "normalForm": "enwogrwydd",
    "id": 37296,
    "translations": [ "celebrity" ],
    "isCountable": false,
    "gender": "m"
  },
  {
    "normalForm": "edrychwr",
    "id": 37313,
    "translations": [ "onlooker" ],
    "plural": [ "edrychwyr" ],
    "gender": "m"
  },
  {
    "normalForm": "edau",
    "id": 37348,
    "translations": [ "thread" ],
    "plural": [ "edafedd" ],
    "gender": "f"
  },
  {
    "normalForm": "ensyniad",
    "id": 37422,
    "translations": [ "idea" ],
    "plural": [ "ensyniadau" ],
    "gender": "m"
  },
  {
    "normalForm": "ebostach",
    "id": 37430,
    "translations": [ "spam" ],
    "isCountable": false,
    "gender": "m"
  },
  {
    "normalForm": "entomolegydd",
    "id": 37471,
    "translations": [ "entomologist" ],
    "plural": [ "entomolegwyr" ],
    "gender": "m"
  },
  {
    "normalForm": "edefyn",
    "id": 37569,
    "translations": [ "strand" ],
    "plural": [ "edefynnau" ],
    "gender": "mf"
  },
  {
    "normalForm": "epidemig",
    "id": 37571,
    "translations": [ "epidemic" ],
    "plural": [ "epidemigau" ],
    "gender": "m"
  },
  {
    "normalForm": "euogfarn",
    "id": 37613,
    "translations": [ "conviction" ],
    "plural": [ "euogfarnau" ],
    "gender": "f"
  },
  {
    "normalForm": "ecosystem",
    "id": 37627,
    "translations": [ "ecosystem" ],
    "plural": [ "ecosystemau" ],
    "gender": "f"
  },
  {
    "normalForm": "esbonydd",
    "id": 37671,
    "translations": [ "exponent" ],
    "plural": [ "esbonyddion" ],
    "gender": "m"
  },
  {
    "normalForm": "entomoleg",
    "id": 37698,
    "translations": [ "entomolgy" ],
    "isCountable": false,
    "gender": "f"
  },
  {
    "normalForm": "ehangder",
    "id": 37699,
    "translations": [ "breadth" ],
    "isCountable": false,
    "gender": "m"
  },
  {
    "normalForm": "epilog",
    "id": 37762,
    "translations": [ "conclusion" ],
    "isCountable": false,
    "gender": "m"
  },
  {
    "normalForm": "erthygl",
    "id": 37857,
    "translations": [ "article" ],
    "plural": [ "erthyglau" ],
    "gender": "f"
  },
  {
    "normalForm": "edwiniad",
    "id": 37898,
    "translations": [ "withering" ],
    "isCountable": false,
    "gender": "m"
  },
  {
    "normalForm": "efelychiad",
    "id": 37907,
    "translations": [ "emulation" ],
    "plural": [ "efelychiadau" ],
    "gender": "m"
  },
  {
    "normalForm": "etholfraint",
    "id": 37946,
    "translations": [ "elective franchise" ],
    "plural": [ "etholfreiniau" ],
    "gender": "f"
  },
  {
    "normalForm": "eirias",
    "id": 37974,
    "translations": [ "bonfire" ],
    "isCountable": false,
    "gender": "mf"
  },
  {
    "normalForm": "emliw",
    "id": 37989,
    "translations": [ "enamel" ],
    "plural": [ "emliwiau" ],
    "gender": "m"
  },
  {
    "normalForm": "eurben",
    "id": 38032,
    "translations": [ "golden headed" ],
    "isCountable": false,
    "gender": "m"
  },
  {
    "normalForm": "embroederi",
    "id": 38081,
    "translations": [ "embroidery" ],
    "isCountable": false,
    "gender": "m"
  },
  {
    "normalForm": "epistol",
    "id": 38113,
    "translations": [ "letter" ],
    "plural": [ "epistolau" ],
    "gender": "mf"
  },
  {
    "normalForm": "erledigaeth",
    "id": 38114,
    "translations": [ "persecution" ],
    "plural": [ "erledigaethau" ],
    "gender": "f"
  },
  {
    "normalForm": "eneiniad",
    "id": 38209,
    "translations": [ "unction" ],
    "isCountable": false,
    "gender": "m"
  },
  {
    "normalForm": "embargo",
    "id": 38242,
    "translations": [ "embargo" ],
    "plural": [ "embargos", "embargoau" ],
    "gender": "m"
  },
  {
    "normalForm": "echelin",
    "id": 38283,
    "translations": [ "axe" ],
    "plural": [ "echelinau" ],
    "gender": "f"
  },
  {
    "normalForm": "edifeiriant",
    "id": 38359,
    "translations": [ "penitence" ],
    "isCountable": false,
    "gender": "m"
  },
  {
    "normalForm": "eroplen",
    "id": 38369,
    "translations": [ "aeroplane" ],
    "plural": [ "eroplenau" ],
    "gender": "f"
  },
  {
    "normalForm": "efydd",
    "id": 38386,
    "translations": [ "bronze" ],
    "plural": [ "efyddau" ],
    "gender": "m"
  },
  {
    "normalForm": "emosiwn",
    "id": 38391,
    "translations": [ "emotion" ],
    "plural": [ "emosiynau" ],
    "gender": "m"
  },
  {
    "normalForm": "elips",
    "id": 38409,
    "translations": [ "ellipse" ],
    "plural": [ "elipsau" ],
    "gender": "m"
  },
  {
    "normalForm": "englyn",
    "id": 38503,
    "translations": [ "alliterative stanza" ],
    "plural": [ "englynion" ],
    "gender": "m"
  },
  {
    "normalForm": "economwr",
    "id": 38621,
    "translations": [ "economist" ],
    "isCountable": false,
    "gender": "m"
  },
  {
    "normalForm": "ewgeneg",
    "id": 38624,
    "translations": [ "eugenics" ],
    "isCountable": false,
    "gender": "mf"
  },
  {
    "normalForm": "ewin",
    "id": 38660,
    "translations": [ "fingernail" ],
    "plural": [ "ewinedd" ],
    "gender": "m"
  },
  {
    "normalForm": "euryn",
    "id": 38679,
    "translations": [ "golden jewel" ],
    "isCountable": false,
    "gender": "m"
  },
  {
    "normalForm": "embaras",
    "id": 38695,
    "translations": [ "embarrassment" ],
    "isCountable": false,
    "gender": "m"
  },
  {
    "normalForm": "enillwr",
    "id": 38705,
    "translations": [ "winner" ],
    "plural": [ "enillwyr" ],
    "gender": "m"
  },
  {
    "normalForm": "electronfolt",
    "id": 38714,
    "translations": [ "electronvolt" ],
    "plural": [ "electronfoltiau" ],
    "gender": "m"
  },
  {
    "normalForm": "emrald",
    "id": 38751,
    "translations": [ "emerald" ],
    "isCountable": false,
    "gender": "m"
  },
  {
    "normalForm": "echdoriad",
    "id": 38792,
    "translations": [ "eruption" ],
    "plural": [ "echdoriadau" ],
    "gender": "m"
  },
  {
    "normalForm": "ewro",
    "id": 38795,
    "translations": [ "euro" ],
    "plural": [ "ewros" ],
    "gender": "m"
  },
  {
    "normalForm": "eirion",
    "id": 38867,
    "translations": [ "ornament" ],
    "plural": [ "eirion" ],
    "gender": "m"
  },
  {
    "normalForm": "eiriol",
    "id": 38868,
    "translations": [ "entreaty" ],
    "plural": [ "eiriolau" ],
    "gender": "m"
  },
  {
    "normalForm": "eigion",
    "id": 38872,
    "translations": [ "heart" ],
    "isCountable": false,
    "gender": "mf"
  },
  {
    "normalForm": "efwr",
    "id": 38933,
    "translations": [ "hogweed" ],
    "isCountable": false,
    "gender": "m"
  },
  {
    "normalForm": "efelychydd",
    "id": 38948,
    "translations": [ "emulator" ],
    "plural": [ "efelychyddion" ],
    "gender": "m"
  },
  {
    "normalForm": "ewyn",
    "id": 38964,
    "translations": [ "foam" ],
    "isCountable": false,
    "gender": "m"
  },
  {
    "normalForm": "ennyd",
    "id": 38969,
    "translations": [ "while" ],
    "isCountable": false,
    "gender": "mf"
  },
  {
    "normalForm": "ennyn",
    "id": 38970,
    "translations": [ "blaze" ],
    "isCountable": false,
    "gender": "m"
  },
  {
    "normalForm": "ethnograffeg",
    "id": 38985,
    "translations": [ "ethnography" ],
    "isCountable": false,
    "gender": "f"
  },
  {
    "normalForm": "edrydd",
    "id": 39071,
    "translations": [ "residence" ],
    "isCountable": false,
    "gender": "m"
  },
  {
    "normalForm": "esgeulustra",
    "id": 39077,
    "translations": [ "negligence" ],
    "isCountable": false,
    "gender": "m"
  },
  {
    "normalForm": "enllib",
    "id": 39085,
    "translations": [ "libel" ],
    "plural": [ "enllibau" ],
    "gender": "m"
  },
  {
    "normalForm": "efengylwr",
    "id": 39098,
    "translations": [ "evangelist" ],
    "plural": [ "efengylwyr" ],
    "gender": "m"
  },
  {
    "normalForm": "eisin",
    "id": 39100,
    "translations": [ "icing" ],
    "isCountable": false,
    "gender": "m"
  },
  {
    "normalForm": "eisio",
    "id": 39101,
    "translations": [ "want" ],
    "isCountable": false,
    "gender": "m"
  },
  {
    "normalForm": "etifedd",
    "id": 39139,
    "translations": [ "heir" ],
    "plural": [ "etifeddwyr", "etifeddion", "etifeddesau" ],
    "gender": "m"
  },
  {
    "normalForm": "esgeulustod",
    "id": 39172,
    "translations": [ "negligence" ],
    "isCountable": false,
    "gender": "m"
  },
  {
    "normalForm": "ehedydd",
    "id": 39184,
    "translations": [ "lark" ],
    "isCountable": false,
    "gender": "m"
  },
  {
    "normalForm": "electroneg",
    "id": 39210,
    "translations": [ "electronics" ],
    "isCountable": false,
    "gender": "f"
  },
  {
    "normalForm": "egin",
    "id": 39254,
    "translations": [ "shoot" ],
    "plural": [ "egin" ],
    "gender": "m"
  },
  {
    "normalForm": "erlyn",
    "id": 39264,
    "translations": [ "pursuit" ],
    "isCountable": false,
    "gender": "mf"
  },
  {
    "normalForm": "ehangiad",
    "id": 39328,
    "translations": [ "expansion" ],
    "isCountable": false,
    "gender": "m"
  },
  {
    "normalForm": "emwlsiwn",
    "id": 39332,
    "translations": [ "emulsion" ],
    "isCountable": false,
    "gender": "m"
  },
  {
    "normalForm": "eidduned",
    "id": 39334,
    "translations": [ "wish" ],
    "isCountable": false,
    "gender": "mf"
  },
  {
    "normalForm": "etholaeth",
    "id": 39351,
    "translations": [ "constituency" ],
    "plural": [ "etholaethau" ],
    "gender": "f"
  },
  {
    "normalForm": "egni",
    "id": 39366,
    "translations": [ "energy" ],
    "plural": [ "egnion", "egnioedd", "egnïoedd", "egnïon" ],
    "gender": "m"
  },
  {
    "normalForm": "edrychiad",
    "id": 39373,
    "translations": [ "look" ],
    "plural": [ "edrychiadau", "edrychiaid" ],
    "gender": "m"
  },
  {
    "normalForm": "esiampl",
    "id": 39400,
    "translations": [ "example" ],
    "plural": [ "esiamplau" ],
    "gender": "f"
  },
  {
    "normalForm": "enaid",
    "id": 39405,
    "translations": [ "soul" ],
    "plural": [ "eneidiau" ],
    "gender": "m"
  },
  {
    "normalForm": "ergydiant",
    "id": 39426,
    "translations": [ "impulsion" ],
    "plural": [ "ergydiannau" ],
    "gender": "m"
  },
  {
    "normalForm": "estheteg",
    "id": 39574,
    "translations": [ "aesthetics" ],
    "isCountable": false,
    "gender": "f"
  },
  {
    "normalForm": "egrwch",
    "id": 39580,
    "translations": [ "acerbity" ],
    "isCountable": false,
    "gender": "m"
  },
  {
    "normalForm": "enw gwesteiwr",
    "id": 39588,
    "translations": [ "hostname" ],
    "plural": [ "enwau gwesteiwr" ],
    "gender": "m"
  },
  {
    "normalForm": "eiliad",
    "id": 39608,
    "translations": [ "second" ],
    "plural": [ "eiliadau" ],
    "gender": "mf"
  },
  {
    "normalForm": "epithet",
    "id": 39666,
    "translations": [ "epithet" ],
    "isCountable": false,
    "gender": "m"
  },
  {
    "normalForm": "ecolegydd",
    "id": 39757,
    "translations": [ "ecologist" ],
    "plural": [ "ecolegwyr" ],
    "gender": "m"
  },
  {
    "normalForm": "ehed",
    "id": 39814,
    "translations": [ "flight" ],
    "isCountable": false,
    "gender": "f"
  },
  {
    "normalForm": "eirlaw",
    "id": 39828,
    "translations": [ "sleet" ],
    "isCountable": false,
    "gender": "m"
  },
  {
    "normalForm": "e-bost",
    "id": 39845,
    "translations": [ "email" ],
    "isCountable": false,
    "gender": "m"
  },
  {
    "normalForm": "entropi",
    "id": 39919,
    "translations": [ "entropi" ],
    "plural": [ "entropïau" ],
    "gender": "m"
  },
  {
    "normalForm": "eigionfor",
    "id": 39998,
    "translations": [ "ocean" ],
    "plural": [ "eigionforoedd" ],
    "gender": "m"
  },
  {
    "normalForm": "erythropoietin",
    "id": 40016,
    "translations": [ "erythropoietin" ],
    "isCountable": false,
    "gender": "m"
  },
  {
    "normalForm": "efrydwr",
    "id": 40034,
    "translations": [ "student" ],
    "plural": [ "efrydwyr" ],
    "gender": "m"
  },
  {
    "normalForm": "enllyn",
    "id": 40064,
    "translations": [ "cheese" ],
    "isCountable": false,
    "gender": "m"
  },
  {
    "normalForm": "efengyliaeth",
    "id": 40094,
    "translations": [ "evangelism" ],
    "isCountable": false,
    "gender": "f"
  },
  {
    "normalForm": "elusen",
    "id": 40110,
    "translations": [ "charity" ],
    "plural": [ "elusennau" ],
    "gender": "f"
  },
  {
    "normalForm": "emffysema",
    "id": 40120,
    "translations": [ "emphysema" ],
    "isCountable": false,
    "gender": "m"
  },
  {
    "normalForm": "ellyll",
    "id": 40129,
    "translations": [ "daemon" ],
    "plural": [ "ellyllon" ],
    "gender": "m"
  },
  {
    "normalForm": "enghraifft",
    "id": 40161,
    "translations": [ "example" ],
    "plural": [ "enghreifftiau" ],
    "gender": "f"
  },
  {
    "normalForm": "echrys",
    "id": 40171,
    "plural": [ "echrysau" ],
    "gender": "m"
  },
  {
    "normalForm": "enamel",
    "id": 40275,
    "translations": [ "enamel" ],
    "isCountable": false,
    "gender": "m"
  }
]
