[
  {
    "normalForm": "ysgol",
    "plural": ["ysgolion"]
  },
  {
    "normalForm": "ysgerbwd",
    "id": 30011,
    "translations": [ "skeleton" ],
    "isCountable": false,
    "gender": "m"
  },
  {
    "normalForm": "ymyriad",
    "id": 30042,
    "translations": [ "interrupt" ],
    "plural": [ "ymyriadau", "ymyriadau" ],
    "gender": "m"
  },
  {
    "normalForm": "ymadäwr",
    "id": 30235,
    "translations": [ "departer" ],
    "plural": [ "ymadawyr" ],
    "gender": "m"
  },
  {
    "normalForm": "ymddiriedolwr",
    "id": 30258,
    "translations": [ "trustee" ],
    "plural": [ "ymddiriedolwyr" ],
    "gender": "m"
  },
  {
    "normalForm": "ymennydd",
    "id": 30309,
    "translations": [ "brain" ],
    "plural": [ "ymenyddiau", "ymenyddau" ],
    "gender": "m"
  },
  {
    "normalForm": "ymbelydredd",
    "id": 30349,
    "translations": [ "radioactivity" ],
    "isCountable": false,
    "gender": "m"
  },
  {
    "normalForm": "ymddiheuriad",
    "id": 30357,
    "translations": [ "apology" ],
    "plural": [ "ymddiheuriadau" ],
    "gender": "m"
  },
  {
    "normalForm": "yfwch",
    "id": 30382,
    "isCountable": false,
    "gender": "m"
  },
  {
    "normalForm": "ymraniad",
    "id": 30432,
    "translations": [ "division" ],
    "plural": [ "ymraniadau" ],
    "gender": "m"
  },
  {
    "normalForm": "ysgogydd",
    "id": 30666,
    "translations": [ "mover" ],
    "plural": [ "ysgogyddion" ],
    "gender": "m"
  },
  {
    "normalForm": "ymosodwr",
    "id": 30728,
    "translations": [ "attacker" ],
    "plural": [ "ymosodwyr" ],
    "gender": "m"
  },
  {
    "normalForm": "ystlum",
    "id": 30746,
    "translations": [ "bat" ],
    "plural": [ "ystlumod", "slumod", "stlumod" ],
    "gender": "mf"
  },
  {
    "normalForm": "ysgolhaig",
    "id": 30845,
    "translations": [ "scholar" ],
    "plural": [ "ysgolheigion", "ysgoleigesau" ],
    "gender": "m"
  },
  {
    "normalForm": "ystyriaeth",
    "id": 30878,
    "translations": [ "consideration" ],
    "plural": [ "ystyriaethau" ],
    "gender": "f"
  },
  {
    "normalForm": "ysgydwad",
    "id": 30889,
    "translations": [ "jolt" ],
    "isCountable": false,
    "gender": "mf"
  },
  {
    "normalForm": "ymdrech",
    "id": 30922,
    "translations": [ "effort" ],
    "plural": [ "ymdrechion" ],
    "gender": "mf"
  },
  {
    "normalForm": "ymgeisyddiaeth",
    "id": 30924,
    "translations": [ "candidature" ],
    "isCountable": false,
    "gender": "f"
  },
  {
    "normalForm": "ysgarlad",
    "id": 30995,
    "translations": [ "wicked" ],
    "isCountable": false,
    "gender": "m"
  },
  {
    "normalForm": "ymerawdwr",
    "id": 31083,
    "translations": [ "emperor" ],
    "plural": [ "ymerawdwyr" ],
    "gender": "m"
  },
  {
    "normalForm": "ysglyfaeth",
    "id": 31093,
    "translations": [ "prey" ],
    "isCountable": false,
    "gender": "mf"
  },
  {
    "normalForm": "ynysfor",
    "id": 31098,
    "translations": [ "archipelago" ],
    "plural": [ "ynysforoedd" ],
    "gender": "m"
  },
  {
    "normalForm": "ystwythder",
    "id": 31113,
    "translations": [ "suppleness" ],
    "isCountable": false,
    "gender": "m"
  },
  {
    "normalForm": "ymdeithiwr",
    "id": 31157,
    "translations": [ "traveller" ],
    "plural": [ "ymdeithwyr" ],
    "gender": "m"
  },
  {
    "normalForm": "ymosodiad",
    "id": 31209,
    "plural": [ "ymosodiadau" ],
    "gender": "m"
  },
  {
    "normalForm": "ysgwyd",
    "id": 31236,
    "translations": [ "shield" ],
    "plural": [ "ysgwydawr" ],
    "gender": "mf"
  },
  {
    "normalForm": "ymgynnull",
    "id": 31281,
    "translations": [ "assembly" ],
    "isCountable": false,
    "gender": "mf"
  },
  {
    "normalForm": "ysbyty",
    "id": 31371,
    "translations": [ "hospital" ],
    "plural": [ "ysbytai" ],
    "gender": "mf"
  },
  {
    "normalForm": "ysgogiad",
    "id": 31391,
    "translations": [ "stimuli" ],
    "plural": [ "ysgogiadau" ],
    "gender": "m"
  },
  {
    "normalForm": "ymdrin",
    "id": 31393,
    "translations": [ "dispute" ],
    "isCountable": false,
    "gender": "m"
  },
  {
    "normalForm": "ysmaldod",
    "id": 31419,
    "translations": [ "curiosity" ],
    "isCountable": false,
    "gender": "m"
  },
  {
    "normalForm": "ysbardun",
    "id": 31558,
    "translations": [ "spur" ],
    "isCountable": false,
    "gender": "mf"
  },
  {
    "normalForm": "ymdrechfa",
    "id": 31564,
    "translations": [ "effort" ],
    "isCountable": false,
    "gender": "f"
  },
  {
    "normalForm": "ysgrythur",
    "id": 31586,
    "translations": [ "scripture" ],
    "plural": [ "ysgrythurau", "sgrythurau" ],
    "gender": "f"
  },
  {
    "normalForm": "ystadegaeth",
    "id": 31591,
    "translations": [ "statistics" ],
    "isCountable": false,
    "gender": "f"
  },
  {
    "normalForm": "ysgyfarnog",
    "id": 31656,
    "translations": [ "fox" ],
    "isCountable": false,
    "gender": "f"
  },
  {
    "normalForm": "ysbrydegwr",
    "id": 31665,
    "translations": [ "spiritualist" ],
    "plural": [ "ysbrydegwyr" ],
    "gender": "m"
  },
  {
    "normalForm": "ysgarmes",
    "id": 31676,
    "translations": [ "skirmish" ],
    "isCountable": false,
    "gender": "f"
  },
  {
    "normalForm": "ymwybodaeth",
    "id": 31685,
    "translations": [ "intuition" ],
    "isCountable": false,
    "gender": "mf"
  },
  {
    "normalForm": "ymannerch",
    "id": 31707,
    "translations": [ "greeting" ],
    "plural": [ "ymanerchion" ],
    "gender": "m"
  },
  {
    "normalForm": "ymrwymiad",
    "id": 31762,
    "translations": [ "commitment" ],
    "plural": [ "ymrwymiadau" ],
    "gender": "m"
  },
  {
    "normalForm": "ysgrytiad",
    "id": 31775,
    "translations": [ "shaking" ],
    "isCountable": false,
    "gender": "m"
  },
  {
    "normalForm": "ymddiried",
    "id": 31890,
    "translations": [ "trust" ],
    "plural": [ "ymddiriedau" ],
    "gender": "m"
  },
  {
    "normalForm": "ymestyniad",
    "id": 31969,
    "translations": [ "extension" ],
    "plural": [ "ymestyniadau" ],
    "gender": "m"
  },
  {
    "normalForm": "ymostyngiad",
    "id": 31990,
    "translations": [ "humility" ],
    "isCountable": false,
    "gender": "m"
  },
  {
    "normalForm": "ychwanegiad",
    "id": 32066,
    "translations": [ "addition" ],
    "plural": [ "ychwanegiadau" ],
    "gender": "m"
  },
  {
    "normalForm": "ymlid",
    "id": 32095,
    "translations": [ "pursuit" ],
    "plural": [ "ymlidiau" ],
    "gender": "m"
  },
  {
    "normalForm": "ynfydrwydd",
    "id": 32216,
    "translations": [ "madness" ],
    "isCountable": false,
    "gender": "m"
  },
  {
    "normalForm": "ymffrost",
    "id": 32294,
    "isCountable": false,
    "gender": "m"
  },
  {
    "normalForm": "ymgeleddwr",
    "id": 32330,
    "translations": [ "helper" ],
    "plural": [ "ymgeleddwyr" ],
    "gender": "m"
  },
  {
    "normalForm": "ynysiad",
    "id": 32335,
    "translations": [ "isolation" ],
    "plural": [ "ynysiadau" ],
    "gender": "m"
  },
  {
    "normalForm": "ymaddasiad",
    "id": 32337,
    "translations": [ "adaptation" ],
    "plural": [ "ymaddasiadau" ],
    "gender": "m"
  },
  {
    "normalForm": "ymliw",
    "id": 32386,
    "isCountable": false,
    "gender": "m"
  },
  {
    "normalForm": "ysbrydoliaeth",
    "id": 32401,
    "translations": [ "inspiration" ],
    "plural": [ "ysbrydoliaethau" ],
    "gender": "f"
  },
  {
    "normalForm": "yfwr",
    "id": 32516,
    "translations": [ "drunkard" ],
    "isCountable": false,
    "gender": "m"
  },
  {
    "normalForm": "y farchnad rydd",
    "id": 32518,
    "translations": [ "the free market" ],
    "isCountable": false,
    "gender": "f"
  },
  {
    "normalForm": "ymlaciad",
    "id": 32628,
    "translations": [ "relaxing" ],
    "isCountable": false,
    "gender": "m"
  },
  {
    "normalForm": "ysgallen",
    "id": 32685,
    "translations": [ "thistle" ],
    "plural": [ "ysgall" ],
    "gender": "f"
  },
  {
    "normalForm": "ystyfnigrwydd",
    "id": 32745,
    "translations": [ "obstinacy" ],
    "isCountable": false,
    "gender": "m"
  },
  {
    "normalForm": "ymwacâd",
    "id": 32760,
    "translations": [ "emptying" ],
    "isCountable": false,
    "gender": "m"
  },
  {
    "normalForm": "ysbrydolrwydd",
    "id": 32781,
    "translations": [ "inspiration" ],
    "isCountable": false,
    "gender": "m"
  },
  {
    "normalForm": "ymgymeriad",
    "id": 32825,
    "translations": [ "undertaking" ],
    "plural": [ "ymgymeriadau" ],
    "gender": "m"
  },
  {
    "normalForm": "ychwanegyn",
    "id": 32840,
    "translations": [ "add-on" ],
    "plural": [ "ychwanegion" ],
    "gender": "m"
  },
  {
    "normalForm": "ymfudwr",
    "id": 32848,
    "translations": [ "migrant" ],
    "plural": [ "ymfudwyr" ],
    "gender": "m"
  },
  {
    "normalForm": "ymarwedd",
    "id": 32860,
    "translations": [ "conduct" ],
    "isCountable": false,
    "gender": "mf"
  },
  {
    "normalForm": "ystrydeb",
    "id": 32918,
    "translations": [ "clichés" ],
    "plural": [ "ystrydebau" ],
    "gender": "m"
  },
  {
    "normalForm": "ych",
    "id": 33155,
    "translations": [ "ox" ],
    "plural": [ "ychen" ],
    "gender": "m"
  },
  {
    "normalForm": "ymwrthodiad",
    "id": 33224,
    "translations": [ "renunciation" ],
    "plural": [ "ymwrthodiadau" ],
    "gender": "m"
  },
  {
    "normalForm": "ysgoloriaeth",
    "id": 33236,
    "translations": [ "scholarship" ],
    "plural": [ "ysgoloriaethau" ],
    "gender": "f"
  },
  {
    "normalForm": "ymdrafodaeth",
    "id": 33254,
    "translations": [ "discussion" ],
    "plural": [ "ymdrafodaethau" ],
    "gender": "mf"
  },
  {
    "normalForm": "ymagwedd",
    "id": 33348,
    "translations": [ "approache" ],
    "plural": [ "ymagweddau" ],
    "gender": "f"
  },
  {
    "normalForm": "ymddangosiad",
    "id": 33374,
    "translations": [ "appearance" ],
    "isCountable": false,
    "gender": "m"
  },
  {
    "normalForm": "ymerodraeth",
    "id": 33384,
    "translations": [ "empire" ],
    "plural": [ "ymerodraethau" ],
    "gender": "f"
  },
  {
    "normalForm": "ysgŵd",
    "id": 33392,
    "translations": [ "shove" ],
    "isCountable": false,
    "gender": "m"
  },
  {
    "normalForm": "ysgŵl",
    "id": 33431,
    "translations": [ "helmet" ],
    "isCountable": false,
    "gender": "mf"
  },
  {
    "normalForm": "ymwthiad",
    "id": 33443,
    "translations": [ "pushing" ],
    "isCountable": false,
    "gender": "m"
  },
  {
    "normalForm": "ymlusgiaid",
    "id": 33449,
    "translations": [ "reptile" ],
    "isCountable": false,
    "gender": "m"
  },
  {
    "normalForm": "ysgolor",
    "id": 33462,
    "translations": [ "pupil" ],
    "isCountable": false,
    "gender": "m"
  },
  {
    "normalForm": "ysguthan",
    "id": 33464,
    "translations": [ "woodpigeon" ],
    "isCountable": false,
    "gender": "f"
  },
  {
    "normalForm": "ymlynwr",
    "id": 33472,
    "translations": [ "follower" ],
    "plural": [ "ymlynwyr" ],
    "gender": "m"
  },
  {
    "normalForm": "ysgrech",
    "id": 33567,
    "isCountable": false,
    "gender": "f"
  },
  {
    "normalForm": "yfflon",
    "id": 33702,
    "translations": [ "piece" ],
    "plural": [ "yfflon" ],
    "gender": "m"
  },
  {
    "normalForm": "yswain",
    "id": 33802,
    "translations": [ "squire" ],
    "plural": [ "ysweiniaid", "ysweinaid" ],
    "gender": "m"
  },
  {
    "normalForm": "ymgynghoriaeth",
    "id": 33908,
    "translations": [ "consultation" ],
    "plural": [ "ymgyngoriaethau" ],
    "gender": "m"
  },
  {
    "normalForm": "ymgeisydd",
    "id": 33969,
    "translations": [ "candidate" ],
    "plural": [ "ymgeiswyr", "ymgeisyddesau" ],
    "gender": "m"
  },
  {
    "normalForm": "ysgoldy",
    "id": 33994,
    "translations": [ "schoolroom" ],
    "isCountable": false,
    "gender": "m"
  },
  {
    "normalForm": "ystadeg",
    "id": 34027,
    "translations": [ "statistics" ],
    "plural": [ "ystadegau" ],
    "gender": "f"
  },
  {
    "normalForm": "ymddiriedaeth",
    "id": 34087,
    "translations": [ "confidence" ],
    "plural": [ "ymddiriedaethau" ],
    "gender": "f"
  },
  {
    "normalForm": "ymlidiwr",
    "id": 34100,
    "translations": [ "pursuer" ],
    "plural": [ "ymlidwyr" ],
    "gender": "m"
  },
  {
    "normalForm": "ymlyniad",
    "id": 34115,
    "translations": [ "attachment" ],
    "plural": [ "ymlyniadau", "ymlyniaid" ],
    "gender": "m"
  },
  {
    "normalForm": "ymholiad",
    "id": 34136,
    "translations": [ "inquiry" ],
    "plural": [ "ymholiadau", "ymholiadau" ],
    "gender": "m"
  },
  {
    "normalForm": "ymadrodd parod",
    "id": 34220,
    "translations": [ "set phrase" ],
    "plural": [ "ymadroddion parod" ],
    "gender": "m"
  },
  {
    "normalForm": "ymgyrchiad",
    "id": 34252,
    "plural": [ "ymgyrchiadau" ],
    "gender": "m"
  },
  {
    "normalForm": "ymatebwr",
    "id": 34255,
    "translations": [ "respondent" ],
    "isCountable": false,
    "gender": "m"
  },
  {
    "normalForm": "ysbïwr",
    "id": 34399,
    "translations": [ "spy" ],
    "isCountable": false,
    "gender": "m"
  },
  {
    "normalForm": "ymddiriedolaeth",
    "id": 34512,
    "translations": [ "trust" ],
    "plural": [ "ymddiriedolaethau" ],
    "gender": "f"
  },
  {
    "normalForm": "ymadrodd treuliedig",
    "id": 34566,
    "translations": [ "hackneyed phrase" ],
    "plural": [ "ymadroddion treuliedig" ],
    "gender": "m"
  },
  {
    "normalForm": "ysgraff",
    "id": 34596,
    "translations": [ "boat" ],
    "plural": [ "ysgraffau", "ysgraffiau" ],
    "gender": "f"
  },
  {
    "normalForm": "ynganiad",
    "id": 34615,
    "translations": [ "pronunciation" ],
    "plural": [ "ynganiadau" ],
    "gender": "m"
  },
  {
    "normalForm": "ymarferwr",
    "id": 34671,
    "translations": [ "practitioner" ],
    "plural": [ "ymarferwyr" ],
    "gender": "m"
  },
  {
    "normalForm": "ysbwrial",
    "id": 34759,
    "translations": [ "rubbish" ],
    "isCountable": false,
    "gender": "m"
  },
  {
    "normalForm": "ymfudiad",
    "id": 34778,
    "plural": [ "ymfudiadau" ],
    "gender": "m"
  },
  {
    "normalForm": "ymdaith",
    "id": 34780,
    "translations": [ "journey" ],
    "plural": [ "ymdeithiau" ],
    "gender": "f"
  },
  {
    "normalForm": "ympryd",
    "id": 34799,
    "translations": [ "fasting" ],
    "isCountable": false,
    "gender": "m"
  },
  {
    "normalForm": "ymsefydlwr",
    "id": 34815,
    "translations": [ "settler" ],
    "plural": [ "ymsefydlwyr" ],
    "gender": "m"
  },
  {
    "normalForm": "ysgubell",
    "id": 34928,
    "translations": [ "brush" ],
    "isCountable": false,
    "gender": "f"
  },
  {
    "normalForm": "ysgrepan",
    "id": 34974,
    "translations": [ "scrip" ],
    "isCountable": false,
    "gender": "f"
  },
  {
    "normalForm": "ysgariad",
    "id": 34983,
    "translations": [ "divorce" ],
    "plural": [ "ysgariadau" ],
    "gender": "m"
  },
  {
    "normalForm": "ymgymerwr",
    "id": 35022,
    "translations": [ "undertaker" ],
    "plural": [ "ymgymerwyr" ],
    "gender": "m"
  },
  {
    "normalForm": "ymoleuedd",
    "id": 35069,
    "translations": [ "luminescence" ],
    "isCountable": false,
    "gender": "m"
  },
  {
    "normalForm": "ystifflog",
    "id": 35123,
    "translations": [ "cuttlefish" ],
    "plural": [ "ystifflogod" ],
    "gender": "m"
  },
  {
    "normalForm": "ysgafnder",
    "id": 35135,
    "translations": [ "unchasteness" ],
    "isCountable": false,
    "gender": "m"
  },
  {
    "normalForm": "ysbrydegaeth",
    "id": 35140,
    "translations": [ "spiritualism" ],
    "isCountable": false,
    "gender": "f"
  },
  {
    "normalForm": "ymddangosiadau",
    "id": 35204,
    "translations": [ "appearance" ],
    "isCountable": false,
    "gender": "m"
  },
  {
    "normalForm": "ymherodr",
    "id": 35358,
    "translations": [ "emperor" ],
    "plural": [ "ymerodron", "ymerodrion" ],
    "gender": "m"
  },
  {
    "normalForm": "ymresymiad",
    "id": 35428,
    "translations": [ "argument" ],
    "plural": [ "ymresymiadau" ],
    "gender": "m"
  },
  {
    "normalForm": "ymddygiadaeth",
    "id": 35433,
    "translations": [ "behaviourism" ],
    "isCountable": false,
    "gender": "f"
  },
  {
    "normalForm": "ystalwyn",
    "id": 35435,
    "translations": [ "stallion" ],
    "isCountable": false,
    "gender": "m"
  },
  {
    "normalForm": "ysbigoglys",
    "id": 35539,
    "translations": [ "spinach" ],
    "isCountable": false,
    "gender": "m"
  },
  {
    "normalForm": "ysblander",
    "id": 35558,
    "translations": [ "splendour" ],
    "isCountable": false,
    "gender": "m"
  },
  {
    "normalForm": "ymneilltuad",
    "id": 35560,
    "translations": [ "secession" ],
    "plural": [ "ymneilltuadau" ],
    "gender": "m"
  },
  {
    "normalForm": "ymaros",
    "id": 35585,
    "isCountable": false,
    "gender": "m"
  },
  {
    "normalForm": "ystafell",
    "id": 35599,
    "translations": [ "room" ],
    "plural": [ "ystafelloedd" ],
    "versions": [ 34397 ],
    "gender": "f"
  },
  {
    "normalForm": "ystum",
    "id": 35617,
    "translations": [ "gesture" ],
    "plural": [ "ystumiau" ],
    "gender": "mf"
  },
  {
    "normalForm": "ymchwydd",
    "id": 35655,
    "translations": [ "surge" ],
    "plural": [ "ymchwyddion" ],
    "gender": "m"
  },
  {
    "normalForm": "ymprydiwr",
    "id": 35657,
    "translations": [ "faster" ],
    "plural": [ "ymprydwyr" ],
    "gender": "m"
  },
  {
    "normalForm": "ymdoddiad",
    "id": 35693,
    "plural": [ "ymdoddiadau" ],
    "gender": "m"
  },
  {
    "normalForm": "ymwelydd",
    "id": 35712,
    "translations": [ "visitor" ],
    "plural": [ "ymwelyddion" ],
    "gender": "m"
  },
  {
    "normalForm": "ymdriniaeth",
    "id": 35719,
    "translations": [ "treatment" ],
    "plural": [ "ymdriniaethau" ],
    "gender": "f"
  },
  {
    "normalForm": "ymddiorseddiad",
    "id": 35760,
    "translations": [ "abdication" ],
    "isCountable": false,
    "gender": "m"
  },
  {
    "normalForm": "ymson",
    "id": 35761,
    "translations": [ "monologue" ],
    "plural": [ "ymsonau" ],
    "gender": "mf"
  },
  {
    "normalForm": "ysbail",
    "id": 35783,
    "translations": [ "plunder" ],
    "isCountable": false,
    "gender": "f"
  },
  {
    "normalForm": "ysbaid",
    "id": 35790,
    "translations": [ "period" ],
    "plural": [ "ysbeidiau" ],
    "gender": "mf"
  },
  {
    "normalForm": "ysgolheictod",
    "id": 35814,
    "translations": [ "scholarship" ],
    "isCountable": false,
    "gender": "mf"
  },
  {
    "normalForm": "ymbiliad",
    "id": 35842,
    "translations": [ "beseeching" ],
    "plural": [ "ymbiliadau" ],
    "gender": "m"
  },
  {
    "normalForm": "ymbil",
    "id": 35852,
    "translations": [ "plea" ],
    "plural": [ "ymbiliau" ],
    "gender": "m"
  },
  {
    "normalForm": "ymgais",
    "id": 35936,
    "translations": [ "candidacy" ],
    "plural": [ "ymgeisiau" ],
    "gender": "mf"
  },
  {
    "normalForm": "ymgeisiaeth",
    "id": 35941,
    "translations": [ "candidature" ],
    "isCountable": false,
    "gender": "f"
  },
  {
    "normalForm": "ymgripiad",
    "id": 35975,
    "translations": [ "creepage" ],
    "isCountable": false,
    "gender": "m"
  },
  {
    "normalForm": "ystad",
    "id": 36051,
    "translations": [ "condition" ],
    "plural": [ "estâts", "ystadau" ],
    "gender": "f"
  },
  {
    "normalForm": "ystol",
    "id": 36098,
    "translations": [ "ladder" ],
    "isCountable": false,
    "gender": "f"
  },
  {
    "normalForm": "ystod",
    "id": 36102,
    "translations": [ "range" ],
    "plural": [ "ystodion", "ystodion", "ystodiau", "stodiau" ],
    "gender": "f"
  },
  {
    "normalForm": "ymagweddiad",
    "id": 36175,
    "translations": [ "behaviour" ],
    "plural": [ "ymagweddiadau" ],
    "gender": "m"
  },
  {
    "normalForm": "ymweliad",
    "id": 36231,
    "translations": [ "visit" ],
    "plural": [ "ymweliadau" ],
    "gender": "m"
  },
  {
    "normalForm": "ysbienddrych",
    "id": 36266,
    "translations": [ "telescope" ],
    "isCountable": false,
    "gender": "m"
  },
  {
    "normalForm": "ymwrthedd",
    "id": 36305,
    "translations": [ "resistance" ],
    "isCountable": false,
    "gender": "m"
  },
  {
    "normalForm": "ymelwad",
    "id": 36333,
    "translations": [ "exploit" ],
    "plural": [ "ymelwadau" ],
    "gender": "m"
  },
  {
    "normalForm": "ymchwil",
    "id": 36347,
    "translations": [ "researche" ],
    "plural": [ "ymchwilion" ],
    "gender": "m"
  },
  {
    "normalForm": "ysgwïer",
    "id": 36368,
    "translations": [ "squire" ],
    "isCountable": false,
    "gender": "m"
  },
  {
    "normalForm": "ymlusgiad",
    "id": 36463,
    "translations": [ "reptile" ],
    "plural": [ "ymlusgaid" ],
    "gender": "m"
  },
  {
    "normalForm": "ysbrydoldeb",
    "id": 36537,
    "translations": [ "spirituality" ],
    "isCountable": false,
    "gender": "m"
  },
  {
    "normalForm": "ymatebwyr",
    "id": 36546,
    "translations": [ "respondent" ],
    "isCountable": false,
    "gender": "m"
  },
  {
    "normalForm": "ymdriniad",
    "id": 36552,
    "translations": [ "treatment" ],
    "plural": [ "ymdriniadau" ],
    "gender": "m"
  },
  {
    "normalForm": "ysbrydolwr",
    "id": 36580,
    "translations": [ "spiritualist" ],
    "plural": [ "ysbrydolwyr" ],
    "gender": "m"
  },
  {
    "normalForm": "y wladwriaeth les",
    "id": 36583,
    "translations": [ "the welfare state" ],
    "isCountable": false,
    "gender": "f"
  },
  {
    "normalForm": "ysgythriad",
    "id": 36600,
    "translations": [ "cutting" ],
    "isCountable": false,
    "gender": "m"
  },
  {
    "normalForm": "ymofynnwr",
    "id": 36614,
    "translations": [ "seeker" ],
    "isCountable": false,
    "gender": "m"
  },
  {
    "normalForm": "ysgrifwr",
    "id": 36633,
    "translations": [ "essayist" ],
    "isCountable": false,
    "gender": "m"
  },
  {
    "normalForm": "ynyswr",
    "id": 36658,
    "translations": [ "islander" ],
    "plural": [ "ynyswyr" ],
    "gender": "m"
  },
  {
    "normalForm": "ymladdfa",
    "id": 36683,
    "translations": [ "battlefield" ],
    "plural": [ "ymladdfeydd" ],
    "gender": "f"
  },
  {
    "normalForm": "ymyl",
    "id": 36706,
    "translations": [ "edge" ],
    "plural": [ "ymylon", "ymylon" ],
    "gender": "f"
  },
  {
    "normalForm": "ystyriad",
    "id": 36770,
    "plural": [ "ystyriadau" ],
    "gender": "m"
  },
  {
    "normalForm": "ysgrif",
    "id": 36775,
    "translations": [ "article" ],
    "plural": [ "ysgrifau" ],
    "gender": "f"
  },
  {
    "normalForm": "ymddiswyddiad",
    "id": 36785,
    "translations": [ "resignation" ],
    "plural": [ "ymddiswyddiadau" ],
    "gender": "m"
  },
  {
    "normalForm": "ynad",
    "id": 36793,
    "translations": [ "magistrate" ],
    "plural": [ "ynadon" ],
    "gender": "m"
  },
  {
    "normalForm": "ysgafn",
    "id": 36799,
    "translations": [ "haystack" ],
    "plural": [ "ysgafnau" ],
    "gender": "mf"
  },
  {
    "normalForm": "ysgrifen",
    "id": 36930,
    "translations": [ "writing" ],
    "plural": [ "ysgrifennau" ],
    "gender": "f"
  },
  {
    "normalForm": "ysbeiliwr",
    "id": 36950,
    "translations": [ "plunderer" ],
    "plural": [ "ysbeilwyr" ],
    "gender": "m"
  },
  {
    "normalForm": "ymarferiad",
    "id": 36976,
    "translations": [ "exercise" ],
    "plural": [ "ymarferiadau" ],
    "gender": "m"
  },
  {
    "normalForm": "ymgeisiad",
    "id": 36997,
    "translations": [ "effort" ],
    "plural": [ "ymgeisiadau" ],
    "gender": "m"
  },
  {
    "normalForm": "ysbrydoledd",
    "id": 37003,
    "translations": [ "spirituality" ],
    "isCountable": false,
    "gender": "mf"
  },
  {
    "normalForm": "ymdeimlad",
    "id": 37006,
    "translations": [ "sensation" ],
    "plural": [ "ymdeimladau" ],
    "gender": "m"
  },
  {
    "normalForm": "ymladdwr",
    "id": 37017,
    "translations": [ "fighter" ],
    "plural": [ "ymladdwyr" ],
    "gender": "m"
  },
  {
    "normalForm": "ymgyrch",
    "id": 37021,
    "translations": [ "campaign" ],
    "plural": [ "ymgyrchoedd" ],
    "gender": "f"
  },
  {
    "normalForm": "ysgrifenyddiaeth",
    "id": 37088,
    "translations": [ "spelling" ],
    "isCountable": false,
    "gender": "mf"
  },
  {
    "normalForm": "ynni",
    "id": 37094,
    "translations": [ "energy" ],
    "plural": [ "yniau", "ynïau" ],
    "gender": "m"
  },
  {
    "normalForm": "ysgryd",
    "id": 37100,
    "translations": [ "shiver" ],
    "isCountable": false,
    "gender": "mf"
  },
  {
    "normalForm": "ysgymuniad",
    "id": 37122,
    "translations": [ "excommunication" ],
    "isCountable": false,
    "gender": "m"
  },
  {
    "normalForm": "ymborth",
    "id": 37151,
    "translations": [ "food" ],
    "isCountable": false,
    "gender": "mf"
  },
  {
    "normalForm": "ynys",
    "id": 37281,
    "translations": [ "island" ],
    "plural": [ "ynysoedd", "ynysigau" ],
    "gender": "f"
  },
  {
    "normalForm": "ymwybyddiaeth",
    "id": 37359,
    "translations": [ "consciousness" ],
    "isCountable": false,
    "gender": "f"
  },
  {
    "normalForm": "ysbryd",
    "id": 37394,
    "translations": [ "spirit" ],
    "plural": [ "ysbrydion" ],
    "gender": "m"
  },
  {
    "normalForm": "ysgolfeistr",
    "id": 37498,
    "translations": [ "schoolmaster" ],
    "isCountable": false,
    "gender": "m"
  },
  {
    "normalForm": "ymenyn",
    "id": 37512,
    "translations": [ "butter" ],
    "isCountable": false,
    "gender": "m"
  },
  {
    "normalForm": "ymarferydd",
    "id": 37522,
    "translations": [ "practitioner" ],
    "plural": [ "ymarferyddion" ],
    "gender": "m"
  },
  {
    "normalForm": "ymddygiadwr",
    "id": 37536,
    "translations": [ "behaviourist" ],
    "plural": [ "ymddygiadwyr" ],
    "gender": "m"
  },
  {
    "normalForm": "ystoria",
    "id": 37546,
    "translations": [ "story" ],
    "plural": [ "storiâu" ],
    "gender": "f"
  },
  {
    "normalForm": "ymgnawdoliad",
    "id": 37564,
    "translations": [ "embodiment" ],
    "isCountable": false,
    "gender": "m"
  },
  {
    "normalForm": "ynysigrwydd",
    "id": 37617,
    "translations": [ "insularity" ],
    "isCountable": false,
    "gender": "m"
  },
  {
    "normalForm": "ymneilltuwr",
    "id": 37687,
    "translations": [ "dissenter" ],
    "plural": [ "ymneilltuwyr" ],
    "gender": "m"
  },
  {
    "normalForm": "ysgrifennwr",
    "id": 37700,
    "translations": [ "writer" ],
    "plural": [ "sgrifenwyr", "ysgrifenwyr" ],
    "gender": "m"
  },
  {
    "normalForm": "ymyriad ar breifatrwydd",
    "id": 37830,
    "translations": [ "invasions of privacy" ],
    "plural": [ "ymyriadau ar breifatrwydd" ],
    "gender": "m"
  },
  {
    "normalForm": "ystrad",
    "id": 37840,
    "translations": [ "vale" ],
    "plural": [ "ystradau", "ystradoedd", "stradoedd" ],
    "gender": "mf"
  },
  {
    "normalForm": "ymatebiad",
    "id": 37883,
    "translations": [ "responding" ],
    "plural": [ "ymatebiadau" ],
    "gender": "m"
  },
  {
    "normalForm": "ymddygiad",
    "id": 37929,
    "translations": [ "behaviour" ],
    "plural": [ "ymddygiadau" ],
    "gender": "m"
  },
  {
    "normalForm": "ymadawiad",
    "id": 37935,
    "translations": [ "departing" ],
    "isCountable": false,
    "gender": "m"
  },
  {
    "normalForm": "ysgytlaeth",
    "id": 38025,
    "translations": [ "milk shake" ],
    "isCountable": false,
    "gender": "m"
  },
  {
    "normalForm": "ymarweddiad",
    "id": 38035,
    "translations": [ "behaviour" ],
    "isCountable": false,
    "gender": "m"
  },
  {
    "normalForm": "ymadroddiad",
    "id": 38036,
    "translations": [ "expression" ],
    "isCountable": false,
    "gender": "m"
  },
  {
    "normalForm": "ystyrlonrwydd",
    "id": 38187,
    "translations": [ "meaningfulness" ],
    "isCountable": false,
    "gender": "m"
  },
  {
    "normalForm": "ymgynghoriad",
    "id": 38299,
    "translations": [ "consultation" ],
    "plural": [ "ymgyngoriadau", "ymgynghoriadau" ],
    "gender": "m"
  },
  {
    "normalForm": "ymresymwr",
    "id": 38316,
    "translations": [ "reasoner" ],
    "isCountable": false,
    "gender": "m"
  },
  {
    "normalForm": "ymreolaeth",
    "id": 38339,
    "translations": [ "autonomy" ],
    "isCountable": false,
    "gender": "f"
  },
  {
    "normalForm": "ymdeithgan",
    "id": 38345,
    "translations": [ "march" ],
    "plural": [ "ymdeithganau" ],
    "gender": "f"
  },
  {
    "normalForm": "ymgynghorwr",
    "id": 38500,
    "translations": [ "adviser" ],
    "plural": [ "ymgynghorwyr" ],
    "gender": "m"
  },
  {
    "normalForm": "ydlan",
    "id": 38501,
    "translations": [ "rickyard" ],
    "plural": [ "ydlannau" ],
    "gender": "f"
  },
  {
    "normalForm": "ymrysonfa",
    "id": 38516,
    "translations": [ "contention" ],
    "plural": [ "ymrysonfeydd" ],
    "gender": "f"
  },
  {
    "normalForm": "ynfytyn",
    "id": 38537,
    "translations": [ "idiot" ],
    "isCountable": false,
    "gender": "m"
  },
  {
    "normalForm": "ysgub",
    "id": 38587,
    "translations": [ "bundle" ],
    "plural": [ "ysgubau" ],
    "gender": "f"
  },
  {
    "normalForm": "ystumiad",
    "id": 38609,
    "translations": [ "distortion" ],
    "isCountable": false,
    "gender": "mf"
  },
  {
    "normalForm": "ymatebydd",
    "id": 38611,
    "translations": [ "respondent" ],
    "plural": [ "ymatebyddion" ],
    "gender": "m"
  },
  {
    "normalForm": "ymddeoliad",
    "id": 38746,
    "translations": [ "retirement" ],
    "plural": [ "ymddeoliadau" ],
    "gender": "m"
  },
  {
    "normalForm": "ysgog",
    "id": 38749,
    "translations": [ "movement" ],
    "plural": [ "ysgogion" ],
    "gender": "m"
  },
  {
    "normalForm": "ychydig",
    "id": 38874,
    "translations": [ "snall amount" ],
    "plural": [ "ychydigion" ],
    "gender": "m"
  },
  {
    "normalForm": "ymgyrchwr",
    "id": 38905,
    "translations": [ "campaigner" ],
    "plural": [ "ymgyrchwyr", "ymgyrchwragedd" ],
    "gender": "m"
  },
  {
    "normalForm": "ysgaw",
    "id": 38960,
    "translations": [ "elder" ],
    "plural": [ "ysgaw" ],
    "gender": "m"
  },
  {
    "normalForm": "ymneilltuaeth",
    "id": 38976,
    "translations": [ "withdrawal" ],
    "isCountable": false,
    "gender": "f"
  },
  {
    "normalForm": "ystyllen",
    "id": 39089,
    "translations": [ "board" ],
    "isCountable": false,
    "gender": "f"
  },
  {
    "normalForm": "ymadrodd",
    "id": 39111,
    "translations": [ "expression" ],
    "plural": [ "ymadroddion", "ymadroddion" ],
    "gender": "m"
  },
  {
    "normalForm": "ymatebolrwydd",
    "id": 39136,
    "translations": [ "responsiveness" ],
    "isCountable": false,
    "gender": "m"
  },
  {
    "normalForm": "ymdrochiad",
    "id": 39145,
    "translations": [ "bathing" ],
    "isCountable": false,
    "gender": "m"
  },
  {
    "normalForm": "ysgrifennydd",
    "id": 39185,
    "translations": [ "secretary" ],
    "plural": [ "sgrifenyddion", "ysgrifenyddion" ],
    "gender": "m"
  },
  {
    "normalForm": "yswiriwr",
    "id": 39243,
    "translations": [ "insurer" ],
    "plural": [ "yswirwyr" ],
    "gender": "m"
  },
  {
    "normalForm": "ystyrlondeb",
    "id": 39252,
    "translations": [ "meaningfulness" ],
    "isCountable": false,
    "gender": "f"
  },
  {
    "normalForm": "ymchwiliad",
    "id": 39257,
    "translations": [ "investigation" ],
    "plural": [ "ymchwiliadau" ],
    "gender": "m"
  },
  {
    "normalForm": "ystadegydd",
    "id": 39310,
    "translations": [ "statistician" ],
    "plural": [ "ystadegwyr" ],
    "gender": "m"
  },
  {
    "normalForm": "ymwelwr",
    "id": 39316,
    "translations": [ "visitor" ],
    "plural": [ "ymwelwyr" ],
    "gender": "m"
  },
  {
    "normalForm": "ysgubor",
    "id": 39343,
    "translations": [ "barn" ],
    "isCountable": false,
    "gender": "mf"
  },
  {
    "normalForm": "ysgwydd",
    "id": 39393,
    "translations": [ "shoulder" ],
    "plural": [ "sgwyddau", "ysgwyddau" ],
    "gender": "f"
  },
  {
    "normalForm": "ymchwilydd",
    "id": 39513,
    "translations": [ "researcher" ],
    "plural": [ "ymchwilyddion" ],
    "gender": "m"
  },
  {
    "normalForm": "ymyrraeth",
    "id": 39538,
    "translations": [ "interference" ],
    "isCountable": false,
    "gender": "f"
  },
  {
    "normalForm": "ysgelerder",
    "id": 39564,
    "translations": [ "wickedness" ],
    "plural": [ "ysgelerderau" ],
    "gender": "m"
  },
  {
    "normalForm": "ymchwiliwr",
    "id": 39736,
    "translations": [ "researcher" ],
    "plural": [ "ymchwilwyr" ],
    "gender": "m"
  },
  {
    "normalForm": "ysgyfaint",
    "id": 39741,
    "translations": [ "lung" ],
    "plural": [ "ysgyfeiniau", "ysgyfeinau" ],
    "gender": "f"
  },
  {
    "normalForm": "ysglyf",
    "id": 39746,
    "translations": [ "predator" ],
    "isCountable": false,
    "gender": "m"
  },
  {
    "normalForm": "ymarferoldeb",
    "id": 39804,
    "translations": [ "practicality" ],
    "plural": [ "ymarferoldebau" ],
    "gender": "f"
  },
  {
    "normalForm": "ymroddiad",
    "id": 39827,
    "translations": [ "devotion" ],
    "plural": [ "ymroeadau", "ymroadau" ],
    "gender": "m"
  },
  {
    "normalForm": "ymofyn",
    "id": 39863,
    "translations": [ "inquiry" ],
    "plural": [ "ymofynion" ],
    "gender": "m"
  },
  {
    "normalForm": "ystryw",
    "id": 39911,
    "translations": [ "trick" ],
    "isCountable": false,
    "gender": "mf"
  },
  {
    "normalForm": "ysfa",
    "id": 39944,
    "translations": [ "urge" ],
    "plural": [ "ysfeydd" ],
    "gender": "f"
  },
  {
    "normalForm": "ysgelerdra",
    "id": 39979,
    "translations": [ "wickedness" ],
    "isCountable": false,
    "gender": "m"
  },
  {
    "normalForm": "ymgom",
    "id": 40067,
    "translations": [ "dialogue" ],
    "plural": [ "ymgomiau" ],
    "gender": "f"
  },
  {
    "normalForm": "ymerodres",
    "id": 40109,
    "translations": [ "empresse" ],
    "plural": [ "ymerodresau" ],
    "gender": "f"
  },
  {
    "normalForm": "ysglyfaethwr",
    "id": 40151,
    "translations": [ "predator" ],
    "plural": [ "ysglyfaethwyr" ],
    "gender": "m"
  },
  {
    "normalForm": "yswiriant",
    "id": 40252,
    "translations": [ "insurance" ],
    "plural": [ "yswiriannau" ],
    "gender": "m"
  },
  {
    "normalForm": "ysbrydiaeth",
    "id": 40364,
    "translations": [ "spirit" ],
    "isCountable": false,
    "gender": "mf"
  },
  {
    "normalForm": "ymgynghorydd",
    "id": 40376,
    "translations": [ "adviser" ],
    "plural": [ "ymgynghoryddion", "ymgynghorwyr" ],
    "gender": "m"
  }
]
