[
  {
    "normalForm": "ŵps",
    "id": 31123,
    "translations": [ "oop" ],
    "plural": [ "wpsiau" ],
    "gender": "m"
  },
  {
    "normalForm": "ŵyr",
    "id": 31296,
    "translations": [ "great-grandson" ],
    "plural": [ "gorwyrion", "gorwyresau", "wyron", "wyresau", "wyrion" ],
    "gender": "m"
  }
]
