[
  {
    "normalForm": "da",
    "id": 4669,
    "translations": "good",
    "equative": "cystal",
    "comparative": "gwell",
    "superlative": "gorau"
  },
  {
    "normalForm": "deallus",
    "id": 10006,
    "translations": "intelligent",
    "plural": "deallusion"
  },
  {
    "normalForm": "derbyniol",
    "id": 10024,
    "translations": "acceptable",
    "antonyms": [ 10023 ]
  },
  {
    "normalForm": "drwg",
    "id": 10000,
    "translations": [ "evil", "bad" ],
    "etymology": "From Proto-Celtic *drukos (compare Old Irish droch).",
    "plural": "drygion",
    "equative": "cynddrwg",
    "comparative": "gwaeth",
    "superlative": "gwaethaf"
  },
  {
    "normalForm": "du",
    "id": 10007,
    "translations": "black"
  }
]
