[
  {
    "normalForm": "glas",
    "id": 10008,
    "translations": "blue",
    "plural": "gleision",
    "notes": "The word 'glas' has historically been used to represent a wider range of colours. However, in modern Welsh it is normally used to represent the colour blue."
  },
  {
    "normalForm": "gwael",
    "id": 10020,
    "translations": [ "miserable", "wretched", "contemptible", "despised", "abject", "vile" ],
    "plural": "gwaelion"
  },
  {
    "normalForm": "gwlyb",
    "id": 10009,
    "translations": [ "wet", "moist" ],
    "fem_singular": "gwleb",
    "equative": "mor wlyb"
  },
  {
    "normalForm": "gwreiddiol",
    "id": 10010,
    "translations": "original"
  }
]